<?xml version="1.0" encoding="utf-8" standalone="no"?>
<!DOCTYPE svg PUBLIC "-//W3C//DTD SVG 1.1//EN"
  "http://www.w3.org/Graphics/SVG/1.1/DTD/svg11.dtd">
<!-- Created with matplotlib (https://matplotlib.org/) -->
<svg height="576pt" version="1.1" viewBox="0 0 504 576" width="504pt" xmlns="http://www.w3.org/2000/svg" xmlns:xlink="http://www.w3.org/1999/xlink">
 <defs>
  <style type="text/css">
*{stroke-linecap:butt;stroke-linejoin:round;}
  </style>
 </defs>
 <g id="figure_1">
  <g id="patch_1">
   <path d="M 0 576 
L 504 576 
L 504 0 
L 0 0 
z
" style="fill:#ffffff;"/>
  </g>
  <g id="axes_1">
   <g id="patch_2">
    <path d="M 33.19 185.204165 
L 486.72 185.204165 
L 486.72 63.936 
L 33.19 63.936 
z
" style="fill:#ffffff;"/>
   </g>
   <g id="patch_3">
    <path clip-path="url(#p329af027f4)" d="M 161.030151 185.204165 
L 166.114732 185.204165 
L 166.114732 103.350188 
L 161.030151 103.350188 
z
" style="fill:#1f77b4;opacity:0.3;"/>
   </g>
   <g id="patch_4">
    <path clip-path="url(#p329af027f4)" d="M 166.114732 185.204165 
L 171.199313 185.204165 
L 171.199313 150.123889 
L 166.114732 150.123889 
z
" style="fill:#1f77b4;opacity:0.3;"/>
   </g>
   <g id="patch_5">
    <path clip-path="url(#p329af027f4)" d="M 171.199313 185.204165 
L 176.283894 185.204165 
L 176.283894 87.758954 
L 171.199313 87.758954 
z
" style="fill:#1f77b4;opacity:0.3;"/>
   </g>
   <g id="patch_6">
    <path clip-path="url(#p329af027f4)" d="M 176.283894 185.204165 
L 181.368474 185.204165 
L 181.368474 72.167721 
L 176.283894 72.167721 
z
" style="fill:#1f77b4;opacity:0.3;"/>
   </g>
   <g id="patch_7">
    <path clip-path="url(#p329af027f4)" d="M 181.368474 185.204165 
L 186.453055 185.204165 
L 186.453055 107.247997 
L 181.368474 107.247997 
z
" style="fill:#1f77b4;opacity:0.3;"/>
   </g>
   <g id="patch_8">
    <path clip-path="url(#p329af027f4)" d="M 186.453055 185.204165 
L 191.537636 185.204165 
L 191.537636 83.861146 
L 186.453055 83.861146 
z
" style="fill:#1f77b4;opacity:0.3;"/>
   </g>
   <g id="patch_9">
    <path clip-path="url(#p329af027f4)" d="M 191.537636 185.204165 
L 196.622217 185.204165 
L 196.622217 111.145805 
L 191.537636 111.145805 
z
" style="fill:#1f77b4;opacity:0.3;"/>
   </g>
   <g id="patch_10">
    <path clip-path="url(#p329af027f4)" d="M 196.622217 185.204165 
L 201.706798 185.204165 
L 201.706798 87.758954 
L 196.622217 87.758954 
z
" style="fill:#1f77b4;opacity:0.3;"/>
   </g>
   <g id="patch_11">
    <path clip-path="url(#p329af027f4)" d="M 201.706798 185.204165 
L 206.791379 185.204165 
L 206.791379 99.45238 
L 201.706798 99.45238 
z
" style="fill:#1f77b4;opacity:0.3;"/>
   </g>
   <g id="patch_12">
    <path clip-path="url(#p329af027f4)" d="M 206.791379 185.204165 
L 211.875959 185.204165 
L 211.875959 103.350188 
L 206.791379 103.350188 
z
" style="fill:#1f77b4;opacity:0.3;"/>
   </g>
   <g id="patch_13">
    <path clip-path="url(#p329af027f4)" d="M 211.875959 185.204165 
L 216.96054 185.204165 
L 216.96054 83.861146 
L 211.875959 83.861146 
z
" style="fill:#1f77b4;opacity:0.3;"/>
   </g>
   <g id="patch_14">
    <path clip-path="url(#p329af027f4)" d="M 216.96054 185.204165 
L 222.045121 185.204165 
L 222.045121 107.247997 
L 216.96054 107.247997 
z
" style="fill:#1f77b4;opacity:0.3;"/>
   </g>
   <g id="patch_15">
    <path clip-path="url(#p329af027f4)" d="M 222.045121 185.204165 
L 227.129702 185.204165 
L 227.129702 146.226081 
L 222.045121 146.226081 
z
" style="fill:#1f77b4;opacity:0.3;"/>
   </g>
   <g id="patch_16">
    <path clip-path="url(#p329af027f4)" d="M 227.129702 185.204165 
L 232.214283 185.204165 
L 232.214283 122.83923 
L 227.129702 122.83923 
z
" style="fill:#1f77b4;opacity:0.3;"/>
   </g>
   <g id="patch_17">
    <path clip-path="url(#p329af027f4)" d="M 232.214283 185.204165 
L 237.298863 185.204165 
L 237.298863 118.941422 
L 232.214283 118.941422 
z
" style="fill:#1f77b4;opacity:0.3;"/>
   </g>
   <g id="patch_18">
    <path clip-path="url(#p329af027f4)" d="M 237.298863 185.204165 
L 242.383444 185.204165 
L 242.383444 134.532656 
L 237.298863 134.532656 
z
" style="fill:#1f77b4;opacity:0.3;"/>
   </g>
   <g id="patch_19">
    <path clip-path="url(#p329af027f4)" d="M 242.383444 185.204165 
L 247.468025 185.204165 
L 247.468025 138.430464 
L 242.383444 138.430464 
z
" style="fill:#1f77b4;opacity:0.3;"/>
   </g>
   <g id="patch_20">
    <path clip-path="url(#p329af027f4)" d="M 247.468025 185.204165 
L 252.552606 185.204165 
L 252.552606 130.634847 
L 247.468025 130.634847 
z
" style="fill:#1f77b4;opacity:0.3;"/>
   </g>
   <g id="patch_21">
    <path clip-path="url(#p329af027f4)" d="M 252.552606 185.204165 
L 257.637187 185.204165 
L 257.637187 130.634847 
L 252.552606 130.634847 
z
" style="fill:#1f77b4;opacity:0.3;"/>
   </g>
   <g id="patch_22">
    <path clip-path="url(#p329af027f4)" d="M 257.637187 185.204165 
L 262.721767 185.204165 
L 262.721767 157.919506 
L 257.637187 157.919506 
z
" style="fill:#1f77b4;opacity:0.3;"/>
   </g>
   <g id="patch_23">
    <path clip-path="url(#p329af027f4)" d="M 262.721767 185.204165 
L 267.806348 185.204165 
L 267.806348 142.328272 
L 262.721767 142.328272 
z
" style="fill:#1f77b4;opacity:0.3;"/>
   </g>
   <g id="patch_24">
    <path clip-path="url(#p329af027f4)" d="M 267.806348 185.204165 
L 272.890929 185.204165 
L 272.890929 134.532656 
L 267.806348 134.532656 
z
" style="fill:#1f77b4;opacity:0.3;"/>
   </g>
   <g id="patch_25">
    <path clip-path="url(#p329af027f4)" d="M 272.890929 185.204165 
L 277.97551 185.204165 
L 277.97551 154.021698 
L 272.890929 154.021698 
z
" style="fill:#1f77b4;opacity:0.3;"/>
   </g>
   <g id="patch_26">
    <path clip-path="url(#p329af027f4)" d="M 277.97551 185.204165 
L 283.060091 185.204165 
L 283.060091 154.021698 
L 277.97551 154.021698 
z
" style="fill:#1f77b4;opacity:0.3;"/>
   </g>
   <g id="patch_27">
    <path clip-path="url(#p329af027f4)" d="M 283.060091 185.204165 
L 288.144672 185.204165 
L 288.144672 165.715123 
L 283.060091 165.715123 
z
" style="fill:#1f77b4;opacity:0.3;"/>
   </g>
   <g id="patch_28">
    <path clip-path="url(#p329af027f4)" d="M 288.144672 185.204165 
L 293.229252 185.204165 
L 293.229252 142.328272 
L 288.144672 142.328272 
z
" style="fill:#1f77b4;opacity:0.3;"/>
   </g>
   <g id="patch_29">
    <path clip-path="url(#p329af027f4)" d="M 293.229252 185.204165 
L 298.313833 185.204165 
L 298.313833 173.51074 
L 293.229252 173.51074 
z
" style="fill:#1f77b4;opacity:0.3;"/>
   </g>
   <g id="patch_30">
    <path clip-path="url(#p329af027f4)" d="M 298.313833 185.204165 
L 303.398414 185.204165 
L 303.398414 146.226081 
L 298.313833 146.226081 
z
" style="fill:#1f77b4;opacity:0.3;"/>
   </g>
   <g id="patch_31">
    <path clip-path="url(#p329af027f4)" d="M 303.398414 185.204165 
L 308.482995 185.204165 
L 308.482995 161.817315 
L 303.398414 161.817315 
z
" style="fill:#1f77b4;opacity:0.3;"/>
   </g>
   <g id="patch_32">
    <path clip-path="url(#p329af027f4)" d="M 308.482995 185.204165 
L 313.567576 185.204165 
L 313.567576 150.123889 
L 308.482995 150.123889 
z
" style="fill:#1f77b4;opacity:0.3;"/>
   </g>
   <g id="patch_33">
    <path clip-path="url(#p329af027f4)" d="M 313.567576 185.204165 
L 318.652156 185.204165 
L 318.652156 181.306357 
L 313.567576 181.306357 
z
" style="fill:#1f77b4;opacity:0.3;"/>
   </g>
   <g id="patch_34">
    <path clip-path="url(#p329af027f4)" d="M 318.652156 185.204165 
L 323.736737 185.204165 
L 323.736737 165.715123 
L 318.652156 165.715123 
z
" style="fill:#1f77b4;opacity:0.3;"/>
   </g>
   <g id="patch_35">
    <path clip-path="url(#p329af027f4)" d="M 323.736737 185.204165 
L 328.821318 185.204165 
L 328.821318 161.817315 
L 323.736737 161.817315 
z
" style="fill:#1f77b4;opacity:0.3;"/>
   </g>
   <g id="patch_36">
    <path clip-path="url(#p329af027f4)" d="M 328.821318 185.204165 
L 333.905899 185.204165 
L 333.905899 173.51074 
L 328.821318 173.51074 
z
" style="fill:#1f77b4;opacity:0.3;"/>
   </g>
   <g id="patch_37">
    <path clip-path="url(#p329af027f4)" d="M 333.905899 185.204165 
L 338.99048 185.204165 
L 338.99048 181.306357 
L 333.905899 181.306357 
z
" style="fill:#1f77b4;opacity:0.3;"/>
   </g>
   <g id="patch_38">
    <path clip-path="url(#p329af027f4)" d="M 338.99048 185.204165 
L 344.07506 185.204165 
L 344.07506 177.408548 
L 338.99048 177.408548 
z
" style="fill:#1f77b4;opacity:0.3;"/>
   </g>
   <g id="patch_39">
    <path clip-path="url(#p329af027f4)" d="M 344.07506 185.204165 
L 349.159641 185.204165 
L 349.159641 177.408548 
L 344.07506 177.408548 
z
" style="fill:#1f77b4;opacity:0.3;"/>
   </g>
   <g id="patch_40">
    <path clip-path="url(#p329af027f4)" d="M 349.159641 185.204165 
L 354.244222 185.204165 
L 354.244222 177.408548 
L 349.159641 177.408548 
z
" style="fill:#1f77b4;opacity:0.3;"/>
   </g>
   <g id="patch_41">
    <path clip-path="url(#p329af027f4)" d="M 354.244222 185.204165 
L 359.328803 185.204165 
L 359.328803 177.408548 
L 354.244222 177.408548 
z
" style="fill:#1f77b4;opacity:0.3;"/>
   </g>
   <g id="patch_42">
    <path clip-path="url(#p329af027f4)" d="M 359.328803 185.204165 
L 364.413384 185.204165 
L 364.413384 185.204165 
L 359.328803 185.204165 
z
" style="fill:#1f77b4;opacity:0.3;"/>
   </g>
   <g id="patch_43">
    <path clip-path="url(#p329af027f4)" d="M 364.413384 185.204165 
L 369.497965 185.204165 
L 369.497965 185.204165 
L 364.413384 185.204165 
z
" style="fill:#1f77b4;opacity:0.3;"/>
   </g>
   <g id="patch_44">
    <path clip-path="url(#p329af027f4)" d="M 369.497965 185.204165 
L 374.582545 185.204165 
L 374.582545 177.408548 
L 369.497965 177.408548 
z
" style="fill:#1f77b4;opacity:0.3;"/>
   </g>
   <g id="patch_45">
    <path clip-path="url(#p329af027f4)" d="M 374.582545 185.204165 
L 379.667126 185.204165 
L 379.667126 185.204165 
L 374.582545 185.204165 
z
" style="fill:#1f77b4;opacity:0.3;"/>
   </g>
   <g id="patch_46">
    <path clip-path="url(#p329af027f4)" d="M 379.667126 185.204165 
L 384.751707 185.204165 
L 384.751707 181.306357 
L 379.667126 181.306357 
z
" style="fill:#1f77b4;opacity:0.3;"/>
   </g>
   <g id="patch_47">
    <path clip-path="url(#p329af027f4)" d="M 384.751707 185.204165 
L 389.836288 185.204165 
L 389.836288 185.204165 
L 384.751707 185.204165 
z
" style="fill:#1f77b4;opacity:0.3;"/>
   </g>
   <g id="patch_48">
    <path clip-path="url(#p329af027f4)" d="M 389.836288 185.204165 
L 394.920869 185.204165 
L 394.920869 185.204165 
L 389.836288 185.204165 
z
" style="fill:#1f77b4;opacity:0.3;"/>
   </g>
   <g id="patch_49">
    <path clip-path="url(#p329af027f4)" d="M 394.920869 185.204165 
L 400.005449 185.204165 
L 400.005449 181.306357 
L 394.920869 181.306357 
z
" style="fill:#1f77b4;opacity:0.3;"/>
   </g>
   <g id="patch_50">
    <path clip-path="url(#p329af027f4)" d="M 400.005449 185.204165 
L 405.09003 185.204165 
L 405.09003 185.204165 
L 400.005449 185.204165 
z
" style="fill:#1f77b4;opacity:0.3;"/>
   </g>
   <g id="patch_51">
    <path clip-path="url(#p329af027f4)" d="M 405.09003 185.204165 
L 410.174611 185.204165 
L 410.174611 185.204165 
L 405.09003 185.204165 
z
" style="fill:#1f77b4;opacity:0.3;"/>
   </g>
   <g id="patch_52">
    <path clip-path="url(#p329af027f4)" d="M 410.174611 185.204165 
L 415.259192 185.204165 
L 415.259192 185.204165 
L 410.174611 185.204165 
z
" style="fill:#1f77b4;opacity:0.3;"/>
   </g>
   <g id="patch_53">
    <path clip-path="url(#p329af027f4)" d="M 415.259192 185.204165 
L 420.343773 185.204165 
L 420.343773 185.204165 
L 415.259192 185.204165 
z
" style="fill:#1f77b4;opacity:0.3;"/>
   </g>
   <g id="patch_54">
    <path clip-path="url(#p329af027f4)" d="M 420.343773 185.204165 
L 425.428353 185.204165 
L 425.428353 181.306357 
L 420.343773 181.306357 
z
" style="fill:#1f77b4;opacity:0.3;"/>
   </g>
   <g id="patch_55">
    <path clip-path="url(#p329af027f4)" d="M 425.428353 185.204165 
L 430.512934 185.204165 
L 430.512934 185.204165 
L 425.428353 185.204165 
z
" style="fill:#1f77b4;opacity:0.3;"/>
   </g>
   <g id="patch_56">
    <path clip-path="url(#p329af027f4)" d="M 430.512934 185.204165 
L 435.597515 185.204165 
L 435.597515 185.204165 
L 430.512934 185.204165 
z
" style="fill:#1f77b4;opacity:0.3;"/>
   </g>
   <g id="patch_57">
    <path clip-path="url(#p329af027f4)" d="M 435.597515 185.204165 
L 440.682096 185.204165 
L 440.682096 185.204165 
L 435.597515 185.204165 
z
" style="fill:#1f77b4;opacity:0.3;"/>
   </g>
   <g id="patch_58">
    <path clip-path="url(#p329af027f4)" d="M 440.682096 185.204165 
L 445.766677 185.204165 
L 445.766677 185.204165 
L 440.682096 185.204165 
z
" style="fill:#1f77b4;opacity:0.3;"/>
   </g>
   <g id="patch_59">
    <path clip-path="url(#p329af027f4)" d="M 445.766677 185.204165 
L 450.851258 185.204165 
L 450.851258 185.204165 
L 445.766677 185.204165 
z
" style="fill:#1f77b4;opacity:0.3;"/>
   </g>
   <g id="patch_60">
    <path clip-path="url(#p329af027f4)" d="M 450.851258 185.204165 
L 455.935838 185.204165 
L 455.935838 185.204165 
L 450.851258 185.204165 
z
" style="fill:#1f77b4;opacity:0.3;"/>
   </g>
   <g id="patch_61">
    <path clip-path="url(#p329af027f4)" d="M 455.935838 185.204165 
L 461.020419 185.204165 
L 461.020419 185.204165 
L 455.935838 185.204165 
z
" style="fill:#1f77b4;opacity:0.3;"/>
   </g>
   <g id="patch_62">
    <path clip-path="url(#p329af027f4)" d="M 461.020419 185.204165 
L 466.105 185.204165 
L 466.105 181.306357 
L 461.020419 181.306357 
z
" style="fill:#1f77b4;opacity:0.3;"/>
   </g>
   <g id="matplotlib.axis_1">
    <g id="xtick_1">
     <g id="line2d_1">
      <defs>
       <path d="M 0 0 
L 0 3.5 
" id="m17813f9b01" style="stroke:#000000;stroke-width:0.8;"/>
      </defs>
      <g>
       <use style="stroke:#000000;stroke-width:0.8;" x="83.176493" xlink:href="#m17813f9b01" y="185.204165"/>
      </g>
     </g>
    </g>
    <g id="xtick_2">
     <g id="line2d_2">
      <g>
       <use style="stroke:#000000;stroke-width:0.8;" x="160.610823" xlink:href="#m17813f9b01" y="185.204165"/>
      </g>
     </g>
    </g>
    <g id="xtick_3">
     <g id="line2d_3">
      <g>
       <use style="stroke:#000000;stroke-width:0.8;" x="238.045154" xlink:href="#m17813f9b01" y="185.204165"/>
      </g>
     </g>
    </g>
    <g id="xtick_4">
     <g id="line2d_4">
      <g>
       <use style="stroke:#000000;stroke-width:0.8;" x="315.479485" xlink:href="#m17813f9b01" y="185.204165"/>
      </g>
     </g>
    </g>
    <g id="xtick_5">
     <g id="line2d_5">
      <g>
       <use style="stroke:#000000;stroke-width:0.8;" x="392.913816" xlink:href="#m17813f9b01" y="185.204165"/>
      </g>
     </g>
    </g>
    <g id="xtick_6">
     <g id="line2d_6">
      <g>
       <use style="stroke:#000000;stroke-width:0.8;" x="470.348146" xlink:href="#m17813f9b01" y="185.204165"/>
      </g>
     </g>
    </g>
   </g>
   <g id="matplotlib.axis_2">
    <g id="ytick_1">
     <g id="line2d_7">
      <defs>
       <path d="M 0 0 
L -3.5 0 
" id="m575f031dae" style="stroke:#000000;stroke-width:0.8;"/>
      </defs>
      <g>
       <use style="stroke:#000000;stroke-width:0.8;" x="33.19" xlink:href="#m575f031dae" y="185.204165"/>
      </g>
     </g>
     <g id="text_1">
      <!-- 0 -->
      <defs>
       <path d="M 31.78125 66.40625 
Q 24.171875 66.40625 20.328125 58.90625 
Q 16.5 51.421875 16.5 36.375 
Q 16.5 21.390625 20.328125 13.890625 
Q 24.171875 6.390625 31.78125 6.390625 
Q 39.453125 6.390625 43.28125 13.890625 
Q 47.125 21.390625 47.125 36.375 
Q 47.125 51.421875 43.28125 58.90625 
Q 39.453125 66.40625 31.78125 66.40625 
z
M 31.78125 74.21875 
Q 44.046875 74.21875 50.515625 64.515625 
Q 56.984375 54.828125 56.984375 36.375 
Q 56.984375 17.96875 50.515625 8.265625 
Q 44.046875 -1.421875 31.78125 -1.421875 
Q 19.53125 -1.421875 13.0625 8.265625 
Q 6.59375 17.96875 6.59375 36.375 
Q 6.59375 54.828125 13.0625 64.515625 
Q 19.53125 74.21875 31.78125 74.21875 
z
" id="DejaVuSans-48"/>
      </defs>
      <g transform="translate(17.2825 190.523071)scale(0.14 -0.14)">
       <use xlink:href="#DejaVuSans-48"/>
      </g>
     </g>
    </g>
    <g id="ytick_2">
     <g id="line2d_8">
      <g>
       <use style="stroke:#000000;stroke-width:0.8;" x="33.19" xlink:href="#m575f031dae" y="136.06324"/>
      </g>
     </g>
     <g id="text_2">
      <!-- 2 -->
      <defs>
       <path d="M 19.1875 8.296875 
L 53.609375 8.296875 
L 53.609375 0 
L 7.328125 0 
L 7.328125 8.296875 
Q 12.9375 14.109375 22.625 23.890625 
Q 32.328125 33.6875 34.8125 36.53125 
Q 39.546875 41.84375 41.421875 45.53125 
Q 43.3125 49.21875 43.3125 52.78125 
Q 43.3125 58.59375 39.234375 62.25 
Q 35.15625 65.921875 28.609375 65.921875 
Q 23.96875 65.921875 18.8125 64.3125 
Q 13.671875 62.703125 7.8125 59.421875 
L 7.8125 69.390625 
Q 13.765625 71.78125 18.9375 73 
Q 24.125 74.21875 28.421875 74.21875 
Q 39.75 74.21875 46.484375 68.546875 
Q 53.21875 62.890625 53.21875 53.421875 
Q 53.21875 48.921875 51.53125 44.890625 
Q 49.859375 40.875 45.40625 35.40625 
Q 44.1875 33.984375 37.640625 27.21875 
Q 31.109375 20.453125 19.1875 8.296875 
z
" id="DejaVuSans-50"/>
      </defs>
      <g transform="translate(17.2825 141.382147)scale(0.14 -0.14)">
       <use xlink:href="#DejaVuSans-50"/>
      </g>
     </g>
    </g>
    <g id="ytick_3">
     <g id="line2d_9">
      <g>
       <use style="stroke:#000000;stroke-width:0.8;" x="33.19" xlink:href="#m575f031dae" y="86.922316"/>
      </g>
     </g>
     <g id="text_3">
      <!-- 4 -->
      <defs>
       <path d="M 37.796875 64.3125 
L 12.890625 25.390625 
L 37.796875 25.390625 
z
M 35.203125 72.90625 
L 47.609375 72.90625 
L 47.609375 25.390625 
L 58.015625 25.390625 
L 58.015625 17.1875 
L 47.609375 17.1875 
L 47.609375 0 
L 37.796875 0 
L 37.796875 17.1875 
L 4.890625 17.1875 
L 4.890625 26.703125 
z
" id="DejaVuSans-52"/>
      </defs>
      <g transform="translate(17.2825 92.241222)scale(0.14 -0.14)">
       <use xlink:href="#DejaVuSans-52"/>
      </g>
     </g>
    </g>
   </g>
   <g id="LineCollection_1">
    <path clip-path="url(#p329af027f4)" d="M 161.030151 185.204165 
L 161.030151 103.350188 
" style="fill:none;stroke:#000000;stroke-width:0.5;"/>
    <path clip-path="url(#p329af027f4)" d="M 466.105 185.204165 
L 466.105 181.306357 
" style="fill:none;stroke:#000000;stroke-width:0.5;"/>
   </g>
   <g id="LineCollection_2">
    <path clip-path="url(#p329af027f4)" d="M 228.850865 185.204165 
L 228.850865 69.710675 
" style="fill:none;stroke:#ff7f0e;stroke-width:3;"/>
   </g>
   <g id="LineCollection_3">
    <path clip-path="url(#p329af027f4)" d="M 178.870037 185.204165 
L 178.870037 69.710675 
" style="fill:none;stroke:#2ca02c;stroke-width:3;"/>
    <path clip-path="url(#p329af027f4)" d="M 278.831694 185.204165 
L 278.831694 69.710675 
" style="fill:none;stroke:#2ca02c;stroke-width:3;"/>
   </g>
   <g id="line2d_10">
    <path clip-path="url(#p329af027f4)" d="M 161.030151 103.350188 
L 166.114732 103.350188 
L 166.114732 150.123889 
L 171.199313 150.123889 
L 171.199313 87.758954 
L 176.283894 87.758954 
L 176.283894 72.167721 
L 181.368474 72.167721 
L 181.368474 107.247997 
L 186.453055 107.247997 
L 186.453055 83.861146 
L 191.537636 83.861146 
L 191.537636 111.145805 
L 196.622217 111.145805 
L 196.622217 87.758954 
L 201.706798 87.758954 
L 201.706798 99.45238 
L 206.791379 99.45238 
L 206.791379 103.350188 
L 211.875959 103.350188 
L 211.875959 83.861146 
L 216.96054 83.861146 
L 216.96054 107.247997 
L 222.045121 107.247997 
L 222.045121 146.226081 
L 227.129702 146.226081 
L 227.129702 122.83923 
L 232.214283 122.83923 
L 232.214283 118.941422 
L 237.298863 118.941422 
L 237.298863 134.532656 
L 242.383444 134.532656 
L 242.383444 138.430464 
L 247.468025 138.430464 
L 247.468025 130.634847 
L 252.552606 130.634847 
L 252.552606 130.634847 
L 257.637187 130.634847 
L 257.637187 157.919506 
L 262.721767 157.919506 
L 262.721767 142.328272 
L 267.806348 142.328272 
L 267.806348 134.532656 
L 272.890929 134.532656 
L 272.890929 154.021698 
L 277.97551 154.021698 
L 277.97551 154.021698 
L 283.060091 154.021698 
L 283.060091 165.715123 
L 288.144672 165.715123 
L 288.144672 142.328272 
L 293.229252 142.328272 
L 293.229252 173.51074 
L 298.313833 173.51074 
L 298.313833 146.226081 
L 303.398414 146.226081 
L 303.398414 161.817315 
L 308.482995 161.817315 
L 308.482995 150.123889 
L 313.567576 150.123889 
L 313.567576 181.306357 
L 318.652156 181.306357 
L 318.652156 165.715123 
L 323.736737 165.715123 
L 323.736737 161.817315 
L 328.821318 161.817315 
L 328.821318 173.51074 
L 333.905899 173.51074 
L 333.905899 181.306357 
L 338.99048 181.306357 
L 338.99048 177.408548 
L 344.07506 177.408548 
L 344.07506 177.408548 
L 349.159641 177.408548 
L 349.159641 177.408548 
L 354.244222 177.408548 
L 354.244222 177.408548 
L 359.328803 177.408548 
L 359.328803 185.204165 
L 364.413384 185.204165 
L 364.413384 185.204165 
L 369.497965 185.204165 
L 369.497965 177.408548 
L 374.582545 177.408548 
L 374.582545 185.204165 
L 379.667126 185.204165 
L 379.667126 181.306357 
L 384.751707 181.306357 
L 384.751707 185.204165 
L 389.836288 185.204165 
L 389.836288 185.204165 
L 394.920869 185.204165 
L 394.920869 181.306357 
L 400.005449 181.306357 
L 400.005449 185.204165 
L 405.09003 185.204165 
L 405.09003 185.204165 
L 410.174611 185.204165 
L 410.174611 185.204165 
L 415.259192 185.204165 
L 415.259192 185.204165 
L 420.343773 185.204165 
L 420.343773 181.306357 
L 425.428353 181.306357 
L 425.428353 185.204165 
L 430.512934 185.204165 
L 430.512934 185.204165 
L 435.597515 185.204165 
L 435.597515 185.204165 
L 440.682096 185.204165 
L 440.682096 185.204165 
L 445.766677 185.204165 
L 445.766677 185.204165 
L 450.851258 185.204165 
L 450.851258 185.204165 
L 455.935838 185.204165 
L 455.935838 185.204165 
L 461.020419 185.204165 
L 461.020419 181.306357 
" style="fill:none;stroke:#000000;stroke-linecap:square;stroke-width:0.5;"/>
   </g>
   <g id="patch_63">
    <path d="M 33.19 185.204165 
L 33.19 63.936 
" style="fill:none;stroke:#000000;stroke-linecap:square;stroke-linejoin:miter;stroke-width:0.8;"/>
   </g>
   <g id="patch_64">
    <path d="M 486.72 185.204165 
L 486.72 63.936 
" style="fill:none;stroke:#000000;stroke-linecap:square;stroke-linejoin:miter;stroke-width:0.8;"/>
   </g>
   <g id="patch_65">
    <path d="M 33.19 185.204165 
L 486.72 185.204165 
" style="fill:none;stroke:#000000;stroke-linecap:square;stroke-linejoin:miter;stroke-width:0.8;"/>
   </g>
   <g id="patch_66">
    <path d="M 33.19 63.936 
L 486.72 63.936 
" style="fill:none;stroke:#000000;stroke-linecap:square;stroke-linejoin:miter;stroke-width:0.8;"/>
   </g>
   <g id="text_4">
    <!-- distribution at frame 0 -->
    <defs>
     <path d="M 45.40625 46.390625 
L 45.40625 75.984375 
L 54.390625 75.984375 
L 54.390625 0 
L 45.40625 0 
L 45.40625 8.203125 
Q 42.578125 3.328125 38.25 0.953125 
Q 33.9375 -1.421875 27.875 -1.421875 
Q 17.96875 -1.421875 11.734375 6.484375 
Q 5.515625 14.40625 5.515625 27.296875 
Q 5.515625 40.1875 11.734375 48.09375 
Q 17.96875 56 27.875 56 
Q 33.9375 56 38.25 53.625 
Q 42.578125 51.265625 45.40625 46.390625 
z
M 14.796875 27.296875 
Q 14.796875 17.390625 18.875 11.75 
Q 22.953125 6.109375 30.078125 6.109375 
Q 37.203125 6.109375 41.296875 11.75 
Q 45.40625 17.390625 45.40625 27.296875 
Q 45.40625 37.203125 41.296875 42.84375 
Q 37.203125 48.484375 30.078125 48.484375 
Q 22.953125 48.484375 18.875 42.84375 
Q 14.796875 37.203125 14.796875 27.296875 
z
" id="DejaVuSans-100"/>
     <path d="M 9.421875 54.6875 
L 18.40625 54.6875 
L 18.40625 0 
L 9.421875 0 
z
M 9.421875 75.984375 
L 18.40625 75.984375 
L 18.40625 64.59375 
L 9.421875 64.59375 
z
" id="DejaVuSans-105"/>
     <path d="M 44.28125 53.078125 
L 44.28125 44.578125 
Q 40.484375 46.53125 36.375 47.5 
Q 32.28125 48.484375 27.875 48.484375 
Q 21.1875 48.484375 17.84375 46.4375 
Q 14.5 44.390625 14.5 40.28125 
Q 14.5 37.15625 16.890625 35.375 
Q 19.28125 33.59375 26.515625 31.984375 
L 29.59375 31.296875 
Q 39.15625 29.25 43.1875 25.515625 
Q 47.21875 21.78125 47.21875 15.09375 
Q 47.21875 7.46875 41.1875 3.015625 
Q 35.15625 -1.421875 24.609375 -1.421875 
Q 20.21875 -1.421875 15.453125 -0.5625 
Q 10.6875 0.296875 5.421875 2 
L 5.421875 11.28125 
Q 10.40625 8.6875 15.234375 7.390625 
Q 20.0625 6.109375 24.8125 6.109375 
Q 31.15625 6.109375 34.5625 8.28125 
Q 37.984375 10.453125 37.984375 14.40625 
Q 37.984375 18.0625 35.515625 20.015625 
Q 33.0625 21.96875 24.703125 23.78125 
L 21.578125 24.515625 
Q 13.234375 26.265625 9.515625 29.90625 
Q 5.8125 33.546875 5.8125 39.890625 
Q 5.8125 47.609375 11.28125 51.796875 
Q 16.75 56 26.8125 56 
Q 31.78125 56 36.171875 55.265625 
Q 40.578125 54.546875 44.28125 53.078125 
z
" id="DejaVuSans-115"/>
     <path d="M 18.3125 70.21875 
L 18.3125 54.6875 
L 36.8125 54.6875 
L 36.8125 47.703125 
L 18.3125 47.703125 
L 18.3125 18.015625 
Q 18.3125 11.328125 20.140625 9.421875 
Q 21.96875 7.515625 27.59375 7.515625 
L 36.8125 7.515625 
L 36.8125 0 
L 27.59375 0 
Q 17.1875 0 13.234375 3.875 
Q 9.28125 7.765625 9.28125 18.015625 
L 9.28125 47.703125 
L 2.6875 47.703125 
L 2.6875 54.6875 
L 9.28125 54.6875 
L 9.28125 70.21875 
z
" id="DejaVuSans-116"/>
     <path d="M 41.109375 46.296875 
Q 39.59375 47.171875 37.8125 47.578125 
Q 36.03125 48 33.890625 48 
Q 26.265625 48 22.1875 43.046875 
Q 18.109375 38.09375 18.109375 28.8125 
L 18.109375 0 
L 9.078125 0 
L 9.078125 54.6875 
L 18.109375 54.6875 
L 18.109375 46.1875 
Q 20.953125 51.171875 25.484375 53.578125 
Q 30.03125 56 36.53125 56 
Q 37.453125 56 38.578125 55.875 
Q 39.703125 55.765625 41.0625 55.515625 
z
" id="DejaVuSans-114"/>
     <path d="M 48.6875 27.296875 
Q 48.6875 37.203125 44.609375 42.84375 
Q 40.53125 48.484375 33.40625 48.484375 
Q 26.265625 48.484375 22.1875 42.84375 
Q 18.109375 37.203125 18.109375 27.296875 
Q 18.109375 17.390625 22.1875 11.75 
Q 26.265625 6.109375 33.40625 6.109375 
Q 40.53125 6.109375 44.609375 11.75 
Q 48.6875 17.390625 48.6875 27.296875 
z
M 18.109375 46.390625 
Q 20.953125 51.265625 25.265625 53.625 
Q 29.59375 56 35.59375 56 
Q 45.5625 56 51.78125 48.09375 
Q 58.015625 40.1875 58.015625 27.296875 
Q 58.015625 14.40625 51.78125 6.484375 
Q 45.5625 -1.421875 35.59375 -1.421875 
Q 29.59375 -1.421875 25.265625 0.953125 
Q 20.953125 3.328125 18.109375 8.203125 
L 18.109375 0 
L 9.078125 0 
L 9.078125 75.984375 
L 18.109375 75.984375 
z
" id="DejaVuSans-98"/>
     <path d="M 8.5 21.578125 
L 8.5 54.6875 
L 17.484375 54.6875 
L 17.484375 21.921875 
Q 17.484375 14.15625 20.5 10.265625 
Q 23.53125 6.390625 29.59375 6.390625 
Q 36.859375 6.390625 41.078125 11.03125 
Q 45.3125 15.671875 45.3125 23.6875 
L 45.3125 54.6875 
L 54.296875 54.6875 
L 54.296875 0 
L 45.3125 0 
L 45.3125 8.40625 
Q 42.046875 3.421875 37.71875 1 
Q 33.40625 -1.421875 27.6875 -1.421875 
Q 18.265625 -1.421875 13.375 4.4375 
Q 8.5 10.296875 8.5 21.578125 
z
M 31.109375 56 
z
" id="DejaVuSans-117"/>
     <path d="M 30.609375 48.390625 
Q 23.390625 48.390625 19.1875 42.75 
Q 14.984375 37.109375 14.984375 27.296875 
Q 14.984375 17.484375 19.15625 11.84375 
Q 23.34375 6.203125 30.609375 6.203125 
Q 37.796875 6.203125 41.984375 11.859375 
Q 46.1875 17.53125 46.1875 27.296875 
Q 46.1875 37.015625 41.984375 42.703125 
Q 37.796875 48.390625 30.609375 48.390625 
z
M 30.609375 56 
Q 42.328125 56 49.015625 48.375 
Q 55.71875 40.765625 55.71875 27.296875 
Q 55.71875 13.875 49.015625 6.21875 
Q 42.328125 -1.421875 30.609375 -1.421875 
Q 18.84375 -1.421875 12.171875 6.21875 
Q 5.515625 13.875 5.515625 27.296875 
Q 5.515625 40.765625 12.171875 48.375 
Q 18.84375 56 30.609375 56 
z
" id="DejaVuSans-111"/>
     <path d="M 54.890625 33.015625 
L 54.890625 0 
L 45.90625 0 
L 45.90625 32.71875 
Q 45.90625 40.484375 42.875 44.328125 
Q 39.84375 48.1875 33.796875 48.1875 
Q 26.515625 48.1875 22.3125 43.546875 
Q 18.109375 38.921875 18.109375 30.90625 
L 18.109375 0 
L 9.078125 0 
L 9.078125 54.6875 
L 18.109375 54.6875 
L 18.109375 46.1875 
Q 21.34375 51.125 25.703125 53.5625 
Q 30.078125 56 35.796875 56 
Q 45.21875 56 50.046875 50.171875 
Q 54.890625 44.34375 54.890625 33.015625 
z
" id="DejaVuSans-110"/>
     <path id="DejaVuSans-32"/>
     <path d="M 34.28125 27.484375 
Q 23.390625 27.484375 19.1875 25 
Q 14.984375 22.515625 14.984375 16.5 
Q 14.984375 11.71875 18.140625 8.90625 
Q 21.296875 6.109375 26.703125 6.109375 
Q 34.1875 6.109375 38.703125 11.40625 
Q 43.21875 16.703125 43.21875 25.484375 
L 43.21875 27.484375 
z
M 52.203125 31.203125 
L 52.203125 0 
L 43.21875 0 
L 43.21875 8.296875 
Q 40.140625 3.328125 35.546875 0.953125 
Q 30.953125 -1.421875 24.3125 -1.421875 
Q 15.921875 -1.421875 10.953125 3.296875 
Q 6 8.015625 6 15.921875 
Q 6 25.140625 12.171875 29.828125 
Q 18.359375 34.515625 30.609375 34.515625 
L 43.21875 34.515625 
L 43.21875 35.40625 
Q 43.21875 41.609375 39.140625 45 
Q 35.0625 48.390625 27.6875 48.390625 
Q 23 48.390625 18.546875 47.265625 
Q 14.109375 46.140625 10.015625 43.890625 
L 10.015625 52.203125 
Q 14.9375 54.109375 19.578125 55.046875 
Q 24.21875 56 28.609375 56 
Q 40.484375 56 46.34375 49.84375 
Q 52.203125 43.703125 52.203125 31.203125 
z
" id="DejaVuSans-97"/>
     <path d="M 37.109375 75.984375 
L 37.109375 68.5 
L 28.515625 68.5 
Q 23.6875 68.5 21.796875 66.546875 
Q 19.921875 64.59375 19.921875 59.515625 
L 19.921875 54.6875 
L 34.71875 54.6875 
L 34.71875 47.703125 
L 19.921875 47.703125 
L 19.921875 0 
L 10.890625 0 
L 10.890625 47.703125 
L 2.296875 47.703125 
L 2.296875 54.6875 
L 10.890625 54.6875 
L 10.890625 58.5 
Q 10.890625 67.625 15.140625 71.796875 
Q 19.390625 75.984375 28.609375 75.984375 
z
" id="DejaVuSans-102"/>
     <path d="M 52 44.1875 
Q 55.375 50.25 60.0625 53.125 
Q 64.75 56 71.09375 56 
Q 79.640625 56 84.28125 50.015625 
Q 88.921875 44.046875 88.921875 33.015625 
L 88.921875 0 
L 79.890625 0 
L 79.890625 32.71875 
Q 79.890625 40.578125 77.09375 44.375 
Q 74.3125 48.1875 68.609375 48.1875 
Q 61.625 48.1875 57.5625 43.546875 
Q 53.515625 38.921875 53.515625 30.90625 
L 53.515625 0 
L 44.484375 0 
L 44.484375 32.71875 
Q 44.484375 40.625 41.703125 44.40625 
Q 38.921875 48.1875 33.109375 48.1875 
Q 26.21875 48.1875 22.15625 43.53125 
Q 18.109375 38.875 18.109375 30.90625 
L 18.109375 0 
L 9.078125 0 
L 9.078125 54.6875 
L 18.109375 54.6875 
L 18.109375 46.1875 
Q 21.1875 51.21875 25.484375 53.609375 
Q 29.78125 56 35.6875 56 
Q 41.65625 56 45.828125 52.96875 
Q 50 49.953125 52 44.1875 
z
" id="DejaVuSans-109"/>
     <path d="M 56.203125 29.59375 
L 56.203125 25.203125 
L 14.890625 25.203125 
Q 15.484375 15.921875 20.484375 11.0625 
Q 25.484375 6.203125 34.421875 6.203125 
Q 39.59375 6.203125 44.453125 7.46875 
Q 49.3125 8.734375 54.109375 11.28125 
L 54.109375 2.78125 
Q 49.265625 0.734375 44.1875 -0.34375 
Q 39.109375 -1.421875 33.890625 -1.421875 
Q 20.796875 -1.421875 13.15625 6.1875 
Q 5.515625 13.8125 5.515625 26.8125 
Q 5.515625 40.234375 12.765625 48.109375 
Q 20.015625 56 32.328125 56 
Q 43.359375 56 49.78125 48.890625 
Q 56.203125 41.796875 56.203125 29.59375 
z
M 47.21875 32.234375 
Q 47.125 39.59375 43.09375 43.984375 
Q 39.0625 48.390625 32.421875 48.390625 
Q 24.90625 48.390625 20.390625 44.140625 
Q 15.875 39.890625 15.1875 32.171875 
z
" id="DejaVuSans-101"/>
    </defs>
    <g transform="translate(151.874 57.936)scale(0.192 -0.192)">
     <use xlink:href="#DejaVuSans-100"/>
     <use x="63.476562" xlink:href="#DejaVuSans-105"/>
     <use x="91.259766" xlink:href="#DejaVuSans-115"/>
     <use x="143.359375" xlink:href="#DejaVuSans-116"/>
     <use x="182.568359" xlink:href="#DejaVuSans-114"/>
     <use x="223.681641" xlink:href="#DejaVuSans-105"/>
     <use x="251.464844" xlink:href="#DejaVuSans-98"/>
     <use x="314.941406" xlink:href="#DejaVuSans-117"/>
     <use x="378.320312" xlink:href="#DejaVuSans-116"/>
     <use x="417.529297" xlink:href="#DejaVuSans-105"/>
     <use x="445.3125" xlink:href="#DejaVuSans-111"/>
     <use x="506.494141" xlink:href="#DejaVuSans-110"/>
     <use x="569.873047" xlink:href="#DejaVuSans-32"/>
     <use x="601.660156" xlink:href="#DejaVuSans-97"/>
     <use x="662.939453" xlink:href="#DejaVuSans-116"/>
     <use x="702.148438" xlink:href="#DejaVuSans-32"/>
     <use x="733.935547" xlink:href="#DejaVuSans-102"/>
     <use x="769.140625" xlink:href="#DejaVuSans-114"/>
     <use x="810.253906" xlink:href="#DejaVuSans-97"/>
     <use x="871.533203" xlink:href="#DejaVuSans-109"/>
     <use x="968.945312" xlink:href="#DejaVuSans-101"/>
     <use x="1030.46875" xlink:href="#DejaVuSans-32"/>
     <use x="1062.255859" xlink:href="#DejaVuSans-48"/>
    </g>
   </g>
   <g id="legend_1">
    <g id="patch_67">
     <path d="M 369.9 123.706 
L 475.52 123.706 
Q 478.72 123.706 478.72 120.506 
L 478.72 75.136 
Q 478.72 71.936 475.52 71.936 
L 369.9 71.936 
Q 366.7 71.936 366.7 75.136 
L 366.7 120.506 
Q 366.7 123.706 369.9 123.706 
z
" style="fill:#ffffff;opacity:0.8;stroke:#cccccc;stroke-linejoin:miter;"/>
    </g>
    <g id="line2d_11">
     <path d="M 373.1 84.8935 
L 405.1 84.8935 
" style="fill:none;stroke:#ff7f0e;stroke-width:3;"/>
    </g>
    <g id="text_5">
     <!-- mean -->
     <g transform="translate(417.9 90.4935)scale(0.16 -0.16)">
      <use xlink:href="#DejaVuSans-109"/>
      <use x="97.412109" xlink:href="#DejaVuSans-101"/>
      <use x="158.935547" xlink:href="#DejaVuSans-97"/>
      <use x="220.214844" xlink:href="#DejaVuSans-110"/>
     </g>
    </g>
    <g id="line2d_12">
     <path d="M 373.1 108.3785 
L 405.1 108.3785 
" style="fill:none;stroke:#2ca02c;stroke-width:3;"/>
    </g>
    <g id="text_6">
     <!-- +/- std -->
     <defs>
      <path d="M 46 62.703125 
L 46 35.5 
L 73.1875 35.5 
L 73.1875 27.203125 
L 46 27.203125 
L 46 0 
L 37.796875 0 
L 37.796875 27.203125 
L 10.59375 27.203125 
L 10.59375 35.5 
L 37.796875 35.5 
L 37.796875 62.703125 
z
" id="DejaVuSans-43"/>
      <path d="M 25.390625 72.90625 
L 33.6875 72.90625 
L 8.296875 -9.28125 
L 0 -9.28125 
z
" id="DejaVuSans-47"/>
      <path d="M 4.890625 31.390625 
L 31.203125 31.390625 
L 31.203125 23.390625 
L 4.890625 23.390625 
z
" id="DejaVuSans-45"/>
     </defs>
     <g transform="translate(417.9 113.9785)scale(0.16 -0.16)">
      <use xlink:href="#DejaVuSans-43"/>
      <use x="83.789062" xlink:href="#DejaVuSans-47"/>
      <use x="117.480469" xlink:href="#DejaVuSans-45"/>
      <use x="153.564453" xlink:href="#DejaVuSans-32"/>
      <use x="185.351562" xlink:href="#DejaVuSans-115"/>
      <use x="237.451172" xlink:href="#DejaVuSans-116"/>
      <use x="276.660156" xlink:href="#DejaVuSans-100"/>
     </g>
    </g>
   </g>
  </g>
  <g id="axes_2">
   <g id="patch_68">
    <path d="M 33.19 349.902083 
L 486.72 349.902083 
L 486.72 228.633917 
L 33.19 228.633917 
z
" style="fill:#ffffff;"/>
   </g>
   <g id="patch_69">
    <path clip-path="url(#p652988c589)" d="M 75.40152 349.902083 
L 81.63246 349.902083 
L 81.63246 343.540692 
L 75.40152 343.540692 
z
" style="fill:#1f77b4;opacity:0.3;"/>
   </g>
   <g id="patch_70">
    <path clip-path="url(#p652988c589)" d="M 81.63246 349.902083 
L 87.8634 349.902083 
L 87.8634 343.540692 
L 81.63246 343.540692 
z
" style="fill:#1f77b4;opacity:0.3;"/>
   </g>
   <g id="patch_71">
    <path clip-path="url(#p652988c589)" d="M 87.8634 349.902083 
L 94.094341 349.902083 
L 94.094341 333.998607 
L 87.8634 333.998607 
z
" style="fill:#1f77b4;opacity:0.3;"/>
   </g>
   <g id="patch_72">
    <path clip-path="url(#p652988c589)" d="M 94.094341 349.902083 
L 100.325281 349.902083 
L 100.325281 333.998607 
L 94.094341 333.998607 
z
" style="fill:#1f77b4;opacity:0.3;"/>
   </g>
   <g id="patch_73">
    <path clip-path="url(#p652988c589)" d="M 100.325281 349.902083 
L 106.556221 349.902083 
L 106.556221 333.998607 
L 100.325281 333.998607 
z
" style="fill:#1f77b4;opacity:0.3;"/>
   </g>
   <g id="patch_74">
    <path clip-path="url(#p652988c589)" d="M 106.556221 349.902083 
L 112.787162 349.902083 
L 112.787162 330.817911 
L 106.556221 330.817911 
z
" style="fill:#1f77b4;opacity:0.3;"/>
   </g>
   <g id="patch_75">
    <path clip-path="url(#p652988c589)" d="M 112.787162 349.902083 
L 119.018102 349.902083 
L 119.018102 330.817911 
L 112.787162 330.817911 
z
" style="fill:#1f77b4;opacity:0.3;"/>
   </g>
   <g id="patch_76">
    <path clip-path="url(#p652988c589)" d="M 119.018102 349.902083 
L 125.249042 349.902083 
L 125.249042 333.998607 
L 119.018102 333.998607 
z
" style="fill:#1f77b4;opacity:0.3;"/>
   </g>
   <g id="patch_77">
    <path clip-path="url(#p652988c589)" d="M 125.249042 349.902083 
L 131.479983 349.902083 
L 131.479983 314.914436 
L 125.249042 314.914436 
z
" style="fill:#1f77b4;opacity:0.3;"/>
   </g>
   <g id="patch_78">
    <path clip-path="url(#p652988c589)" d="M 131.479983 349.902083 
L 137.710923 349.902083 
L 137.710923 299.01096 
L 131.479983 299.01096 
z
" style="fill:#1f77b4;opacity:0.3;"/>
   </g>
   <g id="patch_79">
    <path clip-path="url(#p652988c589)" d="M 137.710923 349.902083 
L 143.941863 349.902083 
L 143.941863 330.817911 
L 137.710923 330.817911 
z
" style="fill:#1f77b4;opacity:0.3;"/>
   </g>
   <g id="patch_80">
    <path clip-path="url(#p652988c589)" d="M 143.941863 349.902083 
L 150.172804 349.902083 
L 150.172804 318.095131 
L 143.941863 318.095131 
z
" style="fill:#1f77b4;opacity:0.3;"/>
   </g>
   <g id="patch_81">
    <path clip-path="url(#p652988c589)" d="M 150.172804 349.902083 
L 156.403744 349.902083 
L 156.403744 314.914436 
L 150.172804 314.914436 
z
" style="fill:#1f77b4;opacity:0.3;"/>
   </g>
   <g id="patch_82">
    <path clip-path="url(#p652988c589)" d="M 156.403744 349.902083 
L 162.634684 349.902083 
L 162.634684 308.553045 
L 156.403744 308.553045 
z
" style="fill:#1f77b4;opacity:0.3;"/>
   </g>
   <g id="patch_83">
    <path clip-path="url(#p652988c589)" d="M 162.634684 349.902083 
L 168.865625 349.902083 
L 168.865625 311.73374 
L 162.634684 311.73374 
z
" style="fill:#1f77b4;opacity:0.3;"/>
   </g>
   <g id="patch_84">
    <path clip-path="url(#p652988c589)" d="M 168.865625 349.902083 
L 175.096565 349.902083 
L 175.096565 289.468874 
L 168.865625 289.468874 
z
" style="fill:#1f77b4;opacity:0.3;"/>
   </g>
   <g id="patch_85">
    <path clip-path="url(#p652988c589)" d="M 175.096565 349.902083 
L 181.327505 349.902083 
L 181.327505 283.107484 
L 175.096565 283.107484 
z
" style="fill:#1f77b4;opacity:0.3;"/>
   </g>
   <g id="patch_86">
    <path clip-path="url(#p652988c589)" d="M 181.327505 349.902083 
L 187.558446 349.902083 
L 187.558446 276.746093 
L 181.327505 276.746093 
z
" style="fill:#1f77b4;opacity:0.3;"/>
   </g>
   <g id="patch_87">
    <path clip-path="url(#p652988c589)" d="M 187.558446 349.902083 
L 193.789386 349.902083 
L 193.789386 289.468874 
L 187.558446 289.468874 
z
" style="fill:#1f77b4;opacity:0.3;"/>
   </g>
   <g id="patch_88">
    <path clip-path="url(#p652988c589)" d="M 193.789386 349.902083 
L 200.020326 349.902083 
L 200.020326 286.288179 
L 193.789386 286.288179 
z
" style="fill:#1f77b4;opacity:0.3;"/>
   </g>
   <g id="patch_89">
    <path clip-path="url(#p652988c589)" d="M 200.020326 349.902083 
L 206.251267 349.902083 
L 206.251267 279.926788 
L 200.020326 279.926788 
z
" style="fill:#1f77b4;opacity:0.3;"/>
   </g>
   <g id="patch_90">
    <path clip-path="url(#p652988c589)" d="M 206.251267 349.902083 
L 212.482207 349.902083 
L 212.482207 318.095131 
L 206.251267 318.095131 
z
" style="fill:#1f77b4;opacity:0.3;"/>
   </g>
   <g id="patch_91">
    <path clip-path="url(#p652988c589)" d="M 212.482207 349.902083 
L 218.713147 349.902083 
L 218.713147 302.191655 
L 212.482207 302.191655 
z
" style="fill:#1f77b4;opacity:0.3;"/>
   </g>
   <g id="patch_92">
    <path clip-path="url(#p652988c589)" d="M 218.713147 349.902083 
L 224.944088 349.902083 
L 224.944088 318.095131 
L 218.713147 318.095131 
z
" style="fill:#1f77b4;opacity:0.3;"/>
   </g>
   <g id="patch_93">
    <path clip-path="url(#p652988c589)" d="M 224.944088 349.902083 
L 231.175028 349.902083 
L 231.175028 308.553045 
L 224.944088 308.553045 
z
" style="fill:#1f77b4;opacity:0.3;"/>
   </g>
   <g id="patch_94">
    <path clip-path="url(#p652988c589)" d="M 231.175028 349.902083 
L 237.405968 349.902083 
L 237.405968 318.095131 
L 231.175028 318.095131 
z
" style="fill:#1f77b4;opacity:0.3;"/>
   </g>
   <g id="patch_95">
    <path clip-path="url(#p652988c589)" d="M 237.405968 349.902083 
L 243.636909 349.902083 
L 243.636909 289.468874 
L 237.405968 289.468874 
z
" style="fill:#1f77b4;opacity:0.3;"/>
   </g>
   <g id="patch_96">
    <path clip-path="url(#p652988c589)" d="M 243.636909 349.902083 
L 249.867849 349.902083 
L 249.867849 311.73374 
L 243.636909 311.73374 
z
" style="fill:#1f77b4;opacity:0.3;"/>
   </g>
   <g id="patch_97">
    <path clip-path="url(#p652988c589)" d="M 249.867849 349.902083 
L 256.098789 349.902083 
L 256.098789 299.01096 
L 249.867849 299.01096 
z
" style="fill:#1f77b4;opacity:0.3;"/>
   </g>
   <g id="patch_98">
    <path clip-path="url(#p652988c589)" d="M 256.098789 349.902083 
L 262.32973 349.902083 
L 262.32973 299.01096 
L 256.098789 299.01096 
z
" style="fill:#1f77b4;opacity:0.3;"/>
   </g>
   <g id="patch_99">
    <path clip-path="url(#p652988c589)" d="M 262.32973 349.902083 
L 268.56067 349.902083 
L 268.56067 308.553045 
L 262.32973 308.553045 
z
" style="fill:#1f77b4;opacity:0.3;"/>
   </g>
   <g id="patch_100">
    <path clip-path="url(#p652988c589)" d="M 268.56067 349.902083 
L 274.79161 349.902083 
L 274.79161 299.01096 
L 268.56067 299.01096 
z
" style="fill:#1f77b4;opacity:0.3;"/>
   </g>
   <g id="patch_101">
    <path clip-path="url(#p652988c589)" d="M 274.79161 349.902083 
L 281.022551 349.902083 
L 281.022551 314.914436 
L 274.79161 314.914436 
z
" style="fill:#1f77b4;opacity:0.3;"/>
   </g>
   <g id="patch_102">
    <path clip-path="url(#p652988c589)" d="M 281.022551 349.902083 
L 287.253491 349.902083 
L 287.253491 327.637216 
L 281.022551 327.637216 
z
" style="fill:#1f77b4;opacity:0.3;"/>
   </g>
   <g id="patch_103">
    <path clip-path="url(#p652988c589)" d="M 287.253491 349.902083 
L 293.484431 349.902083 
L 293.484431 330.817911 
L 287.253491 330.817911 
z
" style="fill:#1f77b4;opacity:0.3;"/>
   </g>
   <g id="patch_104">
    <path clip-path="url(#p652988c589)" d="M 293.484431 349.902083 
L 299.715372 349.902083 
L 299.715372 314.914436 
L 293.484431 314.914436 
z
" style="fill:#1f77b4;opacity:0.3;"/>
   </g>
   <g id="patch_105">
    <path clip-path="url(#p652988c589)" d="M 299.715372 349.902083 
L 305.946312 349.902083 
L 305.946312 311.73374 
L 299.715372 311.73374 
z
" style="fill:#1f77b4;opacity:0.3;"/>
   </g>
   <g id="patch_106">
    <path clip-path="url(#p652988c589)" d="M 305.946312 349.902083 
L 312.177252 349.902083 
L 312.177252 333.998607 
L 305.946312 333.998607 
z
" style="fill:#1f77b4;opacity:0.3;"/>
   </g>
   <g id="patch_107">
    <path clip-path="url(#p652988c589)" d="M 312.177252 349.902083 
L 318.408193 349.902083 
L 318.408193 340.359997 
L 312.177252 340.359997 
z
" style="fill:#1f77b4;opacity:0.3;"/>
   </g>
   <g id="patch_108">
    <path clip-path="url(#p652988c589)" d="M 318.408193 349.902083 
L 324.639133 349.902083 
L 324.639133 337.179302 
L 318.408193 337.179302 
z
" style="fill:#1f77b4;opacity:0.3;"/>
   </g>
   <g id="patch_109">
    <path clip-path="url(#p652988c589)" d="M 324.639133 349.902083 
L 330.870074 349.902083 
L 330.870074 337.179302 
L 324.639133 337.179302 
z
" style="fill:#1f77b4;opacity:0.3;"/>
   </g>
   <g id="patch_110">
    <path clip-path="url(#p652988c589)" d="M 330.870074 349.902083 
L 337.101014 349.902083 
L 337.101014 337.179302 
L 330.870074 337.179302 
z
" style="fill:#1f77b4;opacity:0.3;"/>
   </g>
   <g id="patch_111">
    <path clip-path="url(#p652988c589)" d="M 337.101014 349.902083 
L 343.331954 349.902083 
L 343.331954 340.359997 
L 337.101014 340.359997 
z
" style="fill:#1f77b4;opacity:0.3;"/>
   </g>
   <g id="patch_112">
    <path clip-path="url(#p652988c589)" d="M 343.331954 349.902083 
L 349.562895 349.902083 
L 349.562895 346.721387 
L 343.331954 346.721387 
z
" style="fill:#1f77b4;opacity:0.3;"/>
   </g>
   <g id="patch_113">
    <path clip-path="url(#p652988c589)" d="M 349.562895 349.902083 
L 355.793835 349.902083 
L 355.793835 340.359997 
L 349.562895 340.359997 
z
" style="fill:#1f77b4;opacity:0.3;"/>
   </g>
   <g id="patch_114">
    <path clip-path="url(#p652988c589)" d="M 355.793835 349.902083 
L 362.024775 349.902083 
L 362.024775 340.359997 
L 355.793835 340.359997 
z
" style="fill:#1f77b4;opacity:0.3;"/>
   </g>
   <g id="patch_115">
    <path clip-path="url(#p652988c589)" d="M 362.024775 349.902083 
L 368.255716 349.902083 
L 368.255716 330.817911 
L 362.024775 330.817911 
z
" style="fill:#1f77b4;opacity:0.3;"/>
   </g>
   <g id="patch_116">
    <path clip-path="url(#p652988c589)" d="M 368.255716 349.902083 
L 374.486656 349.902083 
L 374.486656 349.902083 
L 368.255716 349.902083 
z
" style="fill:#1f77b4;opacity:0.3;"/>
   </g>
   <g id="patch_117">
    <path clip-path="url(#p652988c589)" d="M 374.486656 349.902083 
L 380.717596 349.902083 
L 380.717596 343.540692 
L 374.486656 343.540692 
z
" style="fill:#1f77b4;opacity:0.3;"/>
   </g>
   <g id="patch_118">
    <path clip-path="url(#p652988c589)" d="M 380.717596 349.902083 
L 386.948537 349.902083 
L 386.948537 349.902083 
L 380.717596 349.902083 
z
" style="fill:#1f77b4;opacity:0.3;"/>
   </g>
   <g id="patch_119">
    <path clip-path="url(#p652988c589)" d="M 386.948537 349.902083 
L 393.179477 349.902083 
L 393.179477 349.902083 
L 386.948537 349.902083 
z
" style="fill:#1f77b4;opacity:0.3;"/>
   </g>
   <g id="patch_120">
    <path clip-path="url(#p652988c589)" d="M 393.179477 349.902083 
L 399.410417 349.902083 
L 399.410417 349.902083 
L 393.179477 349.902083 
z
" style="fill:#1f77b4;opacity:0.3;"/>
   </g>
   <g id="patch_121">
    <path clip-path="url(#p652988c589)" d="M 399.410417 349.902083 
L 405.641358 349.902083 
L 405.641358 343.540692 
L 399.410417 343.540692 
z
" style="fill:#1f77b4;opacity:0.3;"/>
   </g>
   <g id="patch_122">
    <path clip-path="url(#p652988c589)" d="M 405.641358 349.902083 
L 411.872298 349.902083 
L 411.872298 349.902083 
L 405.641358 349.902083 
z
" style="fill:#1f77b4;opacity:0.3;"/>
   </g>
   <g id="patch_123">
    <path clip-path="url(#p652988c589)" d="M 411.872298 349.902083 
L 418.103238 349.902083 
L 418.103238 349.902083 
L 411.872298 349.902083 
z
" style="fill:#1f77b4;opacity:0.3;"/>
   </g>
   <g id="patch_124">
    <path clip-path="url(#p652988c589)" d="M 418.103238 349.902083 
L 424.334179 349.902083 
L 424.334179 349.902083 
L 418.103238 349.902083 
z
" style="fill:#1f77b4;opacity:0.3;"/>
   </g>
   <g id="patch_125">
    <path clip-path="url(#p652988c589)" d="M 424.334179 349.902083 
L 430.565119 349.902083 
L 430.565119 346.721387 
L 424.334179 346.721387 
z
" style="fill:#1f77b4;opacity:0.3;"/>
   </g>
   <g id="patch_126">
    <path clip-path="url(#p652988c589)" d="M 430.565119 349.902083 
L 436.796059 349.902083 
L 436.796059 346.721387 
L 430.565119 346.721387 
z
" style="fill:#1f77b4;opacity:0.3;"/>
   </g>
   <g id="patch_127">
    <path clip-path="url(#p652988c589)" d="M 436.796059 349.902083 
L 443.027 349.902083 
L 443.027 346.721387 
L 436.796059 346.721387 
z
" style="fill:#1f77b4;opacity:0.3;"/>
   </g>
   <g id="patch_128">
    <path clip-path="url(#p652988c589)" d="M 443.027 349.902083 
L 449.25794 349.902083 
L 449.25794 346.721387 
L 443.027 346.721387 
z
" style="fill:#1f77b4;opacity:0.3;"/>
   </g>
   <g id="matplotlib.axis_3">
    <g id="xtick_7">
     <g id="line2d_13">
      <g>
       <use style="stroke:#000000;stroke-width:0.8;" x="83.176493" xlink:href="#m17813f9b01" y="349.902083"/>
      </g>
     </g>
    </g>
    <g id="xtick_8">
     <g id="line2d_14">
      <g>
       <use style="stroke:#000000;stroke-width:0.8;" x="160.610823" xlink:href="#m17813f9b01" y="349.902083"/>
      </g>
     </g>
    </g>
    <g id="xtick_9">
     <g id="line2d_15">
      <g>
       <use style="stroke:#000000;stroke-width:0.8;" x="238.045154" xlink:href="#m17813f9b01" y="349.902083"/>
      </g>
     </g>
    </g>
    <g id="xtick_10">
     <g id="line2d_16">
      <g>
       <use style="stroke:#000000;stroke-width:0.8;" x="315.479485" xlink:href="#m17813f9b01" y="349.902083"/>
      </g>
     </g>
    </g>
    <g id="xtick_11">
     <g id="line2d_17">
      <g>
       <use style="stroke:#000000;stroke-width:0.8;" x="392.913816" xlink:href="#m17813f9b01" y="349.902083"/>
      </g>
     </g>
    </g>
    <g id="xtick_12">
     <g id="line2d_18">
      <g>
       <use style="stroke:#000000;stroke-width:0.8;" x="470.348146" xlink:href="#m17813f9b01" y="349.902083"/>
      </g>
     </g>
    </g>
   </g>
   <g id="matplotlib.axis_4">
    <g id="ytick_4">
     <g id="line2d_19">
      <g>
       <use style="stroke:#000000;stroke-width:0.8;" x="33.19" xlink:href="#m575f031dae" y="349.902083"/>
      </g>
     </g>
     <g id="text_7">
      <!-- 0 -->
      <g transform="translate(17.2825 355.220989)scale(0.14 -0.14)">
       <use xlink:href="#DejaVuSans-48"/>
      </g>
     </g>
    </g>
    <g id="ytick_5">
     <g id="line2d_20">
      <g>
       <use style="stroke:#000000;stroke-width:0.8;" x="33.19" xlink:href="#m575f031dae" y="300.761158"/>
      </g>
     </g>
     <g id="text_8">
      <!-- 2 -->
      <g transform="translate(17.2825 306.080064)scale(0.14 -0.14)">
       <use xlink:href="#DejaVuSans-50"/>
      </g>
     </g>
    </g>
    <g id="ytick_6">
     <g id="line2d_21">
      <g>
       <use style="stroke:#000000;stroke-width:0.8;" x="33.19" xlink:href="#m575f031dae" y="251.620233"/>
      </g>
     </g>
     <g id="text_9">
      <!-- 4 -->
      <g transform="translate(17.2825 256.939139)scale(0.14 -0.14)">
       <use xlink:href="#DejaVuSans-52"/>
      </g>
     </g>
    </g>
   </g>
   <g id="LineCollection_4">
    <path clip-path="url(#p652988c589)" d="M 75.40152 349.902083 
L 75.40152 343.540692 
" style="fill:none;stroke:#000000;stroke-width:0.5;"/>
    <path clip-path="url(#p652988c589)" d="M 449.25794 349.902083 
L 449.25794 346.721387 
" style="fill:none;stroke:#000000;stroke-width:0.5;"/>
   </g>
   <g id="LineCollection_5">
    <path clip-path="url(#p652988c589)" d="M 217.029843 349.902083 
L 217.029843 274.289047 
" style="fill:none;stroke:#ff7f0e;stroke-width:3;"/>
   </g>
   <g id="LineCollection_6">
    <path clip-path="url(#p652988c589)" d="M 148.563267 349.902083 
L 148.563267 274.289047 
" style="fill:none;stroke:#2ca02c;stroke-width:3;"/>
    <path clip-path="url(#p652988c589)" d="M 285.496419 349.902083 
L 285.496419 274.289047 
" style="fill:none;stroke:#2ca02c;stroke-width:3;"/>
   </g>
   <g id="line2d_22">
    <path clip-path="url(#p652988c589)" d="M 75.40152 343.540692 
L 81.63246 343.540692 
L 81.63246 343.540692 
L 87.8634 343.540692 
L 87.8634 333.998607 
L 94.094341 333.998607 
L 94.094341 333.998607 
L 100.325281 333.998607 
L 100.325281 333.998607 
L 106.556221 333.998607 
L 106.556221 330.817911 
L 112.787162 330.817911 
L 112.787162 330.817911 
L 119.018102 330.817911 
L 119.018102 333.998607 
L 125.249042 333.998607 
L 125.249042 314.914436 
L 131.479983 314.914436 
L 131.479983 299.01096 
L 137.710923 299.01096 
L 137.710923 330.817911 
L 143.941863 330.817911 
L 143.941863 318.095131 
L 150.172804 318.095131 
L 150.172804 314.914436 
L 156.403744 314.914436 
L 156.403744 308.553045 
L 162.634684 308.553045 
L 162.634684 311.73374 
L 168.865625 311.73374 
L 168.865625 289.468874 
L 175.096565 289.468874 
L 175.096565 283.107484 
L 181.327505 283.107484 
L 181.327505 276.746093 
L 187.558446 276.746093 
L 187.558446 289.468874 
L 193.789386 289.468874 
L 193.789386 286.288179 
L 200.020326 286.288179 
L 200.020326 279.926788 
L 206.251267 279.926788 
L 206.251267 318.095131 
L 212.482207 318.095131 
L 212.482207 302.191655 
L 218.713147 302.191655 
L 218.713147 318.095131 
L 224.944088 318.095131 
L 224.944088 308.553045 
L 231.175028 308.553045 
L 231.175028 318.095131 
L 237.405968 318.095131 
L 237.405968 289.468874 
L 243.636909 289.468874 
L 243.636909 311.73374 
L 249.867849 311.73374 
L 249.867849 299.01096 
L 256.098789 299.01096 
L 256.098789 299.01096 
L 262.32973 299.01096 
L 262.32973 308.553045 
L 268.56067 308.553045 
L 268.56067 299.01096 
L 274.79161 299.01096 
L 274.79161 314.914436 
L 281.022551 314.914436 
L 281.022551 327.637216 
L 287.253491 327.637216 
L 287.253491 330.817911 
L 293.484431 330.817911 
L 293.484431 314.914436 
L 299.715372 314.914436 
L 299.715372 311.73374 
L 305.946312 311.73374 
L 305.946312 333.998607 
L 312.177252 333.998607 
L 312.177252 340.359997 
L 318.408193 340.359997 
L 318.408193 337.179302 
L 324.639133 337.179302 
L 324.639133 337.179302 
L 330.870074 337.179302 
L 330.870074 337.179302 
L 337.101014 337.179302 
L 337.101014 340.359997 
L 343.331954 340.359997 
L 343.331954 346.721387 
L 349.562895 346.721387 
L 349.562895 340.359997 
L 355.793835 340.359997 
L 355.793835 340.359997 
L 362.024775 340.359997 
L 362.024775 330.817911 
L 368.255716 330.817911 
L 368.255716 349.902083 
L 374.486656 349.902083 
L 374.486656 343.540692 
L 380.717596 343.540692 
L 380.717596 349.902083 
L 386.948537 349.902083 
L 386.948537 349.902083 
L 393.179477 349.902083 
L 393.179477 349.902083 
L 399.410417 349.902083 
L 399.410417 343.540692 
L 405.641358 343.540692 
L 405.641358 349.902083 
L 411.872298 349.902083 
L 411.872298 349.902083 
L 418.103238 349.902083 
L 418.103238 349.902083 
L 424.334179 349.902083 
L 424.334179 346.721387 
L 430.565119 346.721387 
L 430.565119 346.721387 
L 436.796059 346.721387 
L 436.796059 346.721387 
L 443.027 346.721387 
L 443.027 346.721387 
" style="fill:none;stroke:#000000;stroke-linecap:square;stroke-width:0.5;"/>
   </g>
   <g id="patch_129">
    <path d="M 33.19 349.902083 
L 33.19 228.633917 
" style="fill:none;stroke:#000000;stroke-linecap:square;stroke-linejoin:miter;stroke-width:0.8;"/>
   </g>
   <g id="patch_130">
    <path d="M 486.72 349.902083 
L 486.72 228.633917 
" style="fill:none;stroke:#000000;stroke-linecap:square;stroke-linejoin:miter;stroke-width:0.8;"/>
   </g>
   <g id="patch_131">
    <path d="M 33.19 349.902083 
L 486.72 349.902083 
" style="fill:none;stroke:#000000;stroke-linecap:square;stroke-linejoin:miter;stroke-width:0.8;"/>
   </g>
   <g id="patch_132">
    <path d="M 33.19 228.633917 
L 486.72 228.633917 
" style="fill:none;stroke:#000000;stroke-linecap:square;stroke-linejoin:miter;stroke-width:0.8;"/>
   </g>
   <g id="text_10">
    <!-- distribution at frame 2000 -->
    <g transform="translate(133.55 222.633917)scale(0.192 -0.192)">
     <use xlink:href="#DejaVuSans-100"/>
     <use x="63.476562" xlink:href="#DejaVuSans-105"/>
     <use x="91.259766" xlink:href="#DejaVuSans-115"/>
     <use x="143.359375" xlink:href="#DejaVuSans-116"/>
     <use x="182.568359" xlink:href="#DejaVuSans-114"/>
     <use x="223.681641" xlink:href="#DejaVuSans-105"/>
     <use x="251.464844" xlink:href="#DejaVuSans-98"/>
     <use x="314.941406" xlink:href="#DejaVuSans-117"/>
     <use x="378.320312" xlink:href="#DejaVuSans-116"/>
     <use x="417.529297" xlink:href="#DejaVuSans-105"/>
     <use x="445.3125" xlink:href="#DejaVuSans-111"/>
     <use x="506.494141" xlink:href="#DejaVuSans-110"/>
     <use x="569.873047" xlink:href="#DejaVuSans-32"/>
     <use x="601.660156" xlink:href="#DejaVuSans-97"/>
     <use x="662.939453" xlink:href="#DejaVuSans-116"/>
     <use x="702.148438" xlink:href="#DejaVuSans-32"/>
     <use x="733.935547" xlink:href="#DejaVuSans-102"/>
     <use x="769.140625" xlink:href="#DejaVuSans-114"/>
     <use x="810.253906" xlink:href="#DejaVuSans-97"/>
     <use x="871.533203" xlink:href="#DejaVuSans-109"/>
     <use x="968.945312" xlink:href="#DejaVuSans-101"/>
     <use x="1030.46875" xlink:href="#DejaVuSans-32"/>
     <use x="1062.255859" xlink:href="#DejaVuSans-50"/>
     <use x="1125.878906" xlink:href="#DejaVuSans-48"/>
     <use x="1189.501953" xlink:href="#DejaVuSans-48"/>
     <use x="1253.125" xlink:href="#DejaVuSans-48"/>
    </g>
   </g>
  </g>
  <g id="axes_3">
   <g id="patch_133">
    <path d="M 33.19 514.6 
L 486.72 514.6 
L 486.72 393.331835 
L 33.19 393.331835 
z
" style="fill:#ffffff;"/>
   </g>
   <g id="patch_134">
    <path clip-path="url(#p02b65b82e0)" d="M 53.805 514.6 
L 59.926588 514.6 
L 59.926588 504.88746 
L 53.805 504.88746 
z
" style="fill:#1f77b4;opacity:0.3;"/>
   </g>
   <g id="patch_135">
    <path clip-path="url(#p02b65b82e0)" d="M 59.926588 514.6 
L 66.048175 514.6 
L 66.048175 514.6 
L 59.926588 514.6 
z
" style="fill:#1f77b4;opacity:0.3;"/>
   </g>
   <g id="patch_136">
    <path clip-path="url(#p02b65b82e0)" d="M 66.048175 514.6 
L 72.169763 514.6 
L 72.169763 508.124973 
L 66.048175 508.124973 
z
" style="fill:#1f77b4;opacity:0.3;"/>
   </g>
   <g id="patch_137">
    <path clip-path="url(#p02b65b82e0)" d="M 72.169763 514.6 
L 78.29135 514.6 
L 78.29135 514.6 
L 72.169763 514.6 
z
" style="fill:#1f77b4;opacity:0.3;"/>
   </g>
   <g id="patch_138">
    <path clip-path="url(#p02b65b82e0)" d="M 78.29135 514.6 
L 84.412938 514.6 
L 84.412938 511.362487 
L 78.29135 511.362487 
z
" style="fill:#1f77b4;opacity:0.3;"/>
   </g>
   <g id="patch_139">
    <path clip-path="url(#p02b65b82e0)" d="M 84.412938 514.6 
L 90.534525 514.6 
L 90.534525 511.362487 
L 84.412938 511.362487 
z
" style="fill:#1f77b4;opacity:0.3;"/>
   </g>
   <g id="patch_140">
    <path clip-path="url(#p02b65b82e0)" d="M 90.534525 514.6 
L 96.656113 514.6 
L 96.656113 514.6 
L 90.534525 514.6 
z
" style="fill:#1f77b4;opacity:0.3;"/>
   </g>
   <g id="patch_141">
    <path clip-path="url(#p02b65b82e0)" d="M 96.656113 514.6 
L 102.7777 514.6 
L 102.7777 508.124973 
L 96.656113 508.124973 
z
" style="fill:#1f77b4;opacity:0.3;"/>
   </g>
   <g id="patch_142">
    <path clip-path="url(#p02b65b82e0)" d="M 102.7777 514.6 
L 108.899288 514.6 
L 108.899288 501.649946 
L 102.7777 501.649946 
z
" style="fill:#1f77b4;opacity:0.3;"/>
   </g>
   <g id="patch_143">
    <path clip-path="url(#p02b65b82e0)" d="M 108.899288 514.6 
L 115.020875 514.6 
L 115.020875 472.512325 
L 108.899288 472.512325 
z
" style="fill:#1f77b4;opacity:0.3;"/>
   </g>
   <g id="patch_144">
    <path clip-path="url(#p02b65b82e0)" d="M 115.020875 514.6 
L 121.142463 514.6 
L 121.142463 488.699892 
L 115.020875 488.699892 
z
" style="fill:#1f77b4;opacity:0.3;"/>
   </g>
   <g id="patch_145">
    <path clip-path="url(#p02b65b82e0)" d="M 121.142463 514.6 
L 127.26405 514.6 
L 127.26405 504.88746 
L 121.142463 504.88746 
z
" style="fill:#1f77b4;opacity:0.3;"/>
   </g>
   <g id="patch_146">
    <path clip-path="url(#p02b65b82e0)" d="M 127.26405 514.6 
L 133.385638 514.6 
L 133.385638 478.987352 
L 127.26405 478.987352 
z
" style="fill:#1f77b4;opacity:0.3;"/>
   </g>
   <g id="patch_147">
    <path clip-path="url(#p02b65b82e0)" d="M 133.385638 514.6 
L 139.507225 514.6 
L 139.507225 495.174919 
L 133.385638 495.174919 
z
" style="fill:#1f77b4;opacity:0.3;"/>
   </g>
   <g id="patch_148">
    <path clip-path="url(#p02b65b82e0)" d="M 139.507225 514.6 
L 145.628813 514.6 
L 145.628813 478.987352 
L 139.507225 478.987352 
z
" style="fill:#1f77b4;opacity:0.3;"/>
   </g>
   <g id="patch_149">
    <path clip-path="url(#p02b65b82e0)" d="M 145.628813 514.6 
L 151.7504 514.6 
L 151.7504 482.224866 
L 145.628813 482.224866 
z
" style="fill:#1f77b4;opacity:0.3;"/>
   </g>
   <g id="patch_150">
    <path clip-path="url(#p02b65b82e0)" d="M 151.7504 514.6 
L 157.871988 514.6 
L 157.871988 469.274812 
L 151.7504 469.274812 
z
" style="fill:#1f77b4;opacity:0.3;"/>
   </g>
   <g id="patch_151">
    <path clip-path="url(#p02b65b82e0)" d="M 157.871988 514.6 
L 163.993576 514.6 
L 163.993576 472.512325 
L 157.871988 472.512325 
z
" style="fill:#1f77b4;opacity:0.3;"/>
   </g>
   <g id="patch_152">
    <path clip-path="url(#p02b65b82e0)" d="M 163.993576 514.6 
L 170.115163 514.6 
L 170.115163 466.037298 
L 163.993576 466.037298 
z
" style="fill:#1f77b4;opacity:0.3;"/>
   </g>
   <g id="patch_153">
    <path clip-path="url(#p02b65b82e0)" d="M 170.115163 514.6 
L 176.236751 514.6 
L 176.236751 488.699892 
L 170.115163 488.699892 
z
" style="fill:#1f77b4;opacity:0.3;"/>
   </g>
   <g id="patch_154">
    <path clip-path="url(#p02b65b82e0)" d="M 176.236751 514.6 
L 182.358338 514.6 
L 182.358338 472.512325 
L 176.236751 472.512325 
z
" style="fill:#1f77b4;opacity:0.3;"/>
   </g>
   <g id="patch_155">
    <path clip-path="url(#p02b65b82e0)" d="M 182.358338 514.6 
L 188.479926 514.6 
L 188.479926 456.324758 
L 182.358338 456.324758 
z
" style="fill:#1f77b4;opacity:0.3;"/>
   </g>
   <g id="patch_156">
    <path clip-path="url(#p02b65b82e0)" d="M 188.479926 514.6 
L 194.601513 514.6 
L 194.601513 466.037298 
L 188.479926 466.037298 
z
" style="fill:#1f77b4;opacity:0.3;"/>
   </g>
   <g id="patch_157">
    <path clip-path="url(#p02b65b82e0)" d="M 194.601513 514.6 
L 200.723101 514.6 
L 200.723101 453.087244 
L 194.601513 453.087244 
z
" style="fill:#1f77b4;opacity:0.3;"/>
   </g>
   <g id="patch_158">
    <path clip-path="url(#p02b65b82e0)" d="M 200.723101 514.6 
L 206.844688 514.6 
L 206.844688 475.749839 
L 200.723101 475.749839 
z
" style="fill:#1f77b4;opacity:0.3;"/>
   </g>
   <g id="patch_159">
    <path clip-path="url(#p02b65b82e0)" d="M 206.844688 514.6 
L 212.966276 514.6 
L 212.966276 453.087244 
L 206.844688 453.087244 
z
" style="fill:#1f77b4;opacity:0.3;"/>
   </g>
   <g id="patch_160">
    <path clip-path="url(#p02b65b82e0)" d="M 212.966276 514.6 
L 219.087863 514.6 
L 219.087863 469.274812 
L 212.966276 469.274812 
z
" style="fill:#1f77b4;opacity:0.3;"/>
   </g>
   <g id="patch_161">
    <path clip-path="url(#p02b65b82e0)" d="M 219.087863 514.6 
L 225.209451 514.6 
L 225.209451 427.187137 
L 219.087863 427.187137 
z
" style="fill:#1f77b4;opacity:0.3;"/>
   </g>
   <g id="patch_162">
    <path clip-path="url(#p02b65b82e0)" d="M 225.209451 514.6 
L 231.331038 514.6 
L 231.331038 459.562271 
L 225.209451 459.562271 
z
" style="fill:#1f77b4;opacity:0.3;"/>
   </g>
   <g id="patch_163">
    <path clip-path="url(#p02b65b82e0)" d="M 231.331038 514.6 
L 237.452626 514.6 
L 237.452626 472.512325 
L 231.331038 472.512325 
z
" style="fill:#1f77b4;opacity:0.3;"/>
   </g>
   <g id="patch_164">
    <path clip-path="url(#p02b65b82e0)" d="M 237.452626 514.6 
L 243.574213 514.6 
L 243.574213 478.987352 
L 237.452626 478.987352 
z
" style="fill:#1f77b4;opacity:0.3;"/>
   </g>
   <g id="patch_165">
    <path clip-path="url(#p02b65b82e0)" d="M 243.574213 514.6 
L 249.695801 514.6 
L 249.695801 482.224866 
L 243.574213 482.224866 
z
" style="fill:#1f77b4;opacity:0.3;"/>
   </g>
   <g id="patch_166">
    <path clip-path="url(#p02b65b82e0)" d="M 249.695801 514.6 
L 255.817388 514.6 
L 255.817388 472.512325 
L 249.695801 472.512325 
z
" style="fill:#1f77b4;opacity:0.3;"/>
   </g>
   <g id="patch_167">
    <path clip-path="url(#p02b65b82e0)" d="M 255.817388 514.6 
L 261.938976 514.6 
L 261.938976 475.749839 
L 255.817388 475.749839 
z
" style="fill:#1f77b4;opacity:0.3;"/>
   </g>
   <g id="patch_168">
    <path clip-path="url(#p02b65b82e0)" d="M 261.938976 514.6 
L 268.060564 514.6 
L 268.060564 443.374704 
L 261.938976 443.374704 
z
" style="fill:#1f77b4;opacity:0.3;"/>
   </g>
   <g id="patch_169">
    <path clip-path="url(#p02b65b82e0)" d="M 268.060564 514.6 
L 274.182151 514.6 
L 274.182151 482.224866 
L 268.060564 482.224866 
z
" style="fill:#1f77b4;opacity:0.3;"/>
   </g>
   <g id="patch_170">
    <path clip-path="url(#p02b65b82e0)" d="M 274.182151 514.6 
L 280.303739 514.6 
L 280.303739 488.699892 
L 274.182151 488.699892 
z
" style="fill:#1f77b4;opacity:0.3;"/>
   </g>
   <g id="patch_171">
    <path clip-path="url(#p02b65b82e0)" d="M 280.303739 514.6 
L 286.425326 514.6 
L 286.425326 475.749839 
L 280.303739 475.749839 
z
" style="fill:#1f77b4;opacity:0.3;"/>
   </g>
   <g id="patch_172">
    <path clip-path="url(#p02b65b82e0)" d="M 286.425326 514.6 
L 292.546914 514.6 
L 292.546914 491.937406 
L 286.425326 491.937406 
z
" style="fill:#1f77b4;opacity:0.3;"/>
   </g>
   <g id="patch_173">
    <path clip-path="url(#p02b65b82e0)" d="M 292.546914 514.6 
L 298.668501 514.6 
L 298.668501 491.937406 
L 292.546914 491.937406 
z
" style="fill:#1f77b4;opacity:0.3;"/>
   </g>
   <g id="patch_174">
    <path clip-path="url(#p02b65b82e0)" d="M 298.668501 514.6 
L 304.790089 514.6 
L 304.790089 482.224866 
L 298.668501 482.224866 
z
" style="fill:#1f77b4;opacity:0.3;"/>
   </g>
   <g id="patch_175">
    <path clip-path="url(#p02b65b82e0)" d="M 304.790089 514.6 
L 310.911676 514.6 
L 310.911676 485.462379 
L 304.790089 485.462379 
z
" style="fill:#1f77b4;opacity:0.3;"/>
   </g>
   <g id="patch_176">
    <path clip-path="url(#p02b65b82e0)" d="M 310.911676 514.6 
L 317.033264 514.6 
L 317.033264 508.124973 
L 310.911676 508.124973 
z
" style="fill:#1f77b4;opacity:0.3;"/>
   </g>
   <g id="patch_177">
    <path clip-path="url(#p02b65b82e0)" d="M 317.033264 514.6 
L 323.154851 514.6 
L 323.154851 475.749839 
L 317.033264 475.749839 
z
" style="fill:#1f77b4;opacity:0.3;"/>
   </g>
   <g id="patch_178">
    <path clip-path="url(#p02b65b82e0)" d="M 323.154851 514.6 
L 329.276439 514.6 
L 329.276439 498.412433 
L 323.154851 498.412433 
z
" style="fill:#1f77b4;opacity:0.3;"/>
   </g>
   <g id="patch_179">
    <path clip-path="url(#p02b65b82e0)" d="M 329.276439 514.6 
L 335.398026 514.6 
L 335.398026 491.937406 
L 329.276439 491.937406 
z
" style="fill:#1f77b4;opacity:0.3;"/>
   </g>
   <g id="patch_180">
    <path clip-path="url(#p02b65b82e0)" d="M 335.398026 514.6 
L 341.519614 514.6 
L 341.519614 504.88746 
L 335.398026 504.88746 
z
" style="fill:#1f77b4;opacity:0.3;"/>
   </g>
   <g id="patch_181">
    <path clip-path="url(#p02b65b82e0)" d="M 341.519614 514.6 
L 347.641201 514.6 
L 347.641201 514.6 
L 341.519614 514.6 
z
" style="fill:#1f77b4;opacity:0.3;"/>
   </g>
   <g id="patch_182">
    <path clip-path="url(#p02b65b82e0)" d="M 347.641201 514.6 
L 353.762789 514.6 
L 353.762789 501.649946 
L 347.641201 501.649946 
z
" style="fill:#1f77b4;opacity:0.3;"/>
   </g>
   <g id="patch_183">
    <path clip-path="url(#p02b65b82e0)" d="M 353.762789 514.6 
L 359.884376 514.6 
L 359.884376 498.412433 
L 353.762789 498.412433 
z
" style="fill:#1f77b4;opacity:0.3;"/>
   </g>
   <g id="patch_184">
    <path clip-path="url(#p02b65b82e0)" d="M 359.884376 514.6 
L 366.005964 514.6 
L 366.005964 498.412433 
L 359.884376 498.412433 
z
" style="fill:#1f77b4;opacity:0.3;"/>
   </g>
   <g id="patch_185">
    <path clip-path="url(#p02b65b82e0)" d="M 366.005964 514.6 
L 372.127551 514.6 
L 372.127551 511.362487 
L 366.005964 511.362487 
z
" style="fill:#1f77b4;opacity:0.3;"/>
   </g>
   <g id="patch_186">
    <path clip-path="url(#p02b65b82e0)" d="M 372.127551 514.6 
L 378.249139 514.6 
L 378.249139 508.124973 
L 372.127551 508.124973 
z
" style="fill:#1f77b4;opacity:0.3;"/>
   </g>
   <g id="patch_187">
    <path clip-path="url(#p02b65b82e0)" d="M 378.249139 514.6 
L 384.370727 514.6 
L 384.370727 501.649946 
L 378.249139 501.649946 
z
" style="fill:#1f77b4;opacity:0.3;"/>
   </g>
   <g id="patch_188">
    <path clip-path="url(#p02b65b82e0)" d="M 384.370727 514.6 
L 390.492314 514.6 
L 390.492314 514.6 
L 384.370727 514.6 
z
" style="fill:#1f77b4;opacity:0.3;"/>
   </g>
   <g id="patch_189">
    <path clip-path="url(#p02b65b82e0)" d="M 390.492314 514.6 
L 396.613902 514.6 
L 396.613902 508.124973 
L 390.492314 508.124973 
z
" style="fill:#1f77b4;opacity:0.3;"/>
   </g>
   <g id="patch_190">
    <path clip-path="url(#p02b65b82e0)" d="M 396.613902 514.6 
L 402.735489 514.6 
L 402.735489 514.6 
L 396.613902 514.6 
z
" style="fill:#1f77b4;opacity:0.3;"/>
   </g>
   <g id="patch_191">
    <path clip-path="url(#p02b65b82e0)" d="M 402.735489 514.6 
L 408.857077 514.6 
L 408.857077 501.649946 
L 402.735489 501.649946 
z
" style="fill:#1f77b4;opacity:0.3;"/>
   </g>
   <g id="patch_192">
    <path clip-path="url(#p02b65b82e0)" d="M 408.857077 514.6 
L 414.978664 514.6 
L 414.978664 514.6 
L 408.857077 514.6 
z
" style="fill:#1f77b4;opacity:0.3;"/>
   </g>
   <g id="patch_193">
    <path clip-path="url(#p02b65b82e0)" d="M 414.978664 514.6 
L 421.100252 514.6 
L 421.100252 511.362487 
L 414.978664 511.362487 
z
" style="fill:#1f77b4;opacity:0.3;"/>
   </g>
   <g id="matplotlib.axis_5">
    <g id="xtick_13">
     <g id="line2d_23">
      <g>
       <use style="stroke:#000000;stroke-width:0.8;" x="83.176493" xlink:href="#m17813f9b01" y="514.6"/>
      </g>
     </g>
     <g id="text_11">
      <!-- 0.8 -->
      <defs>
       <path d="M 10.6875 12.40625 
L 21 12.40625 
L 21 0 
L 10.6875 0 
z
" id="DejaVuSans-46"/>
       <path d="M 31.78125 34.625 
Q 24.75 34.625 20.71875 30.859375 
Q 16.703125 27.09375 16.703125 20.515625 
Q 16.703125 13.921875 20.71875 10.15625 
Q 24.75 6.390625 31.78125 6.390625 
Q 38.8125 6.390625 42.859375 10.171875 
Q 46.921875 13.96875 46.921875 20.515625 
Q 46.921875 27.09375 42.890625 30.859375 
Q 38.875 34.625 31.78125 34.625 
z
M 21.921875 38.8125 
Q 15.578125 40.375 12.03125 44.71875 
Q 8.5 49.078125 8.5 55.328125 
Q 8.5 64.0625 14.71875 69.140625 
Q 20.953125 74.21875 31.78125 74.21875 
Q 42.671875 74.21875 48.875 69.140625 
Q 55.078125 64.0625 55.078125 55.328125 
Q 55.078125 49.078125 51.53125 44.71875 
Q 48 40.375 41.703125 38.8125 
Q 48.828125 37.15625 52.796875 32.3125 
Q 56.78125 27.484375 56.78125 20.515625 
Q 56.78125 9.90625 50.3125 4.234375 
Q 43.84375 -1.421875 31.78125 -1.421875 
Q 19.734375 -1.421875 13.25 4.234375 
Q 6.78125 9.90625 6.78125 20.515625 
Q 6.78125 27.484375 10.78125 32.3125 
Q 14.796875 37.15625 21.921875 38.8125 
z
M 18.3125 54.390625 
Q 18.3125 48.734375 21.84375 45.5625 
Q 25.390625 42.390625 31.78125 42.390625 
Q 38.140625 42.390625 41.71875 45.5625 
Q 45.3125 48.734375 45.3125 54.390625 
Q 45.3125 60.0625 41.71875 63.234375 
Q 38.140625 66.40625 31.78125 66.40625 
Q 25.390625 66.40625 21.84375 63.234375 
Q 18.3125 60.0625 18.3125 54.390625 
z
" id="DejaVuSans-56"/>
      </defs>
      <g transform="translate(72.044305 532.237813)scale(0.14 -0.14)">
       <use xlink:href="#DejaVuSans-48"/>
       <use x="63.623047" xlink:href="#DejaVuSans-46"/>
       <use x="95.410156" xlink:href="#DejaVuSans-56"/>
      </g>
     </g>
    </g>
    <g id="xtick_14">
     <g id="line2d_24">
      <g>
       <use style="stroke:#000000;stroke-width:0.8;" x="160.610823" xlink:href="#m17813f9b01" y="514.6"/>
      </g>
     </g>
     <g id="text_12">
      <!-- 1.0 -->
      <defs>
       <path d="M 12.40625 8.296875 
L 28.515625 8.296875 
L 28.515625 63.921875 
L 10.984375 60.40625 
L 10.984375 69.390625 
L 28.421875 72.90625 
L 38.28125 72.90625 
L 38.28125 8.296875 
L 54.390625 8.296875 
L 54.390625 0 
L 12.40625 0 
z
" id="DejaVuSans-49"/>
      </defs>
      <g transform="translate(149.478636 532.237813)scale(0.14 -0.14)">
       <use xlink:href="#DejaVuSans-49"/>
       <use x="63.623047" xlink:href="#DejaVuSans-46"/>
       <use x="95.410156" xlink:href="#DejaVuSans-48"/>
      </g>
     </g>
    </g>
    <g id="xtick_15">
     <g id="line2d_25">
      <g>
       <use style="stroke:#000000;stroke-width:0.8;" x="238.045154" xlink:href="#m17813f9b01" y="514.6"/>
      </g>
     </g>
     <g id="text_13">
      <!-- 1.2 -->
      <g transform="translate(226.912967 532.237813)scale(0.14 -0.14)">
       <use xlink:href="#DejaVuSans-49"/>
       <use x="63.623047" xlink:href="#DejaVuSans-46"/>
       <use x="95.410156" xlink:href="#DejaVuSans-50"/>
      </g>
     </g>
    </g>
    <g id="xtick_16">
     <g id="line2d_26">
      <g>
       <use style="stroke:#000000;stroke-width:0.8;" x="315.479485" xlink:href="#m17813f9b01" y="514.6"/>
      </g>
     </g>
     <g id="text_14">
      <!-- 1.4 -->
      <g transform="translate(304.347297 532.237813)scale(0.14 -0.14)">
       <use xlink:href="#DejaVuSans-49"/>
       <use x="63.623047" xlink:href="#DejaVuSans-46"/>
       <use x="95.410156" xlink:href="#DejaVuSans-52"/>
      </g>
     </g>
    </g>
    <g id="xtick_17">
     <g id="line2d_27">
      <g>
       <use style="stroke:#000000;stroke-width:0.8;" x="392.913816" xlink:href="#m17813f9b01" y="514.6"/>
      </g>
     </g>
     <g id="text_15">
      <!-- 1.6 -->
      <defs>
       <path d="M 33.015625 40.375 
Q 26.375 40.375 22.484375 35.828125 
Q 18.609375 31.296875 18.609375 23.390625 
Q 18.609375 15.53125 22.484375 10.953125 
Q 26.375 6.390625 33.015625 6.390625 
Q 39.65625 6.390625 43.53125 10.953125 
Q 47.40625 15.53125 47.40625 23.390625 
Q 47.40625 31.296875 43.53125 35.828125 
Q 39.65625 40.375 33.015625 40.375 
z
M 52.59375 71.296875 
L 52.59375 62.3125 
Q 48.875 64.0625 45.09375 64.984375 
Q 41.3125 65.921875 37.59375 65.921875 
Q 27.828125 65.921875 22.671875 59.328125 
Q 17.53125 52.734375 16.796875 39.40625 
Q 19.671875 43.65625 24.015625 45.921875 
Q 28.375 48.1875 33.59375 48.1875 
Q 44.578125 48.1875 50.953125 41.515625 
Q 57.328125 34.859375 57.328125 23.390625 
Q 57.328125 12.15625 50.6875 5.359375 
Q 44.046875 -1.421875 33.015625 -1.421875 
Q 20.359375 -1.421875 13.671875 8.265625 
Q 6.984375 17.96875 6.984375 36.375 
Q 6.984375 53.65625 15.1875 63.9375 
Q 23.390625 74.21875 37.203125 74.21875 
Q 40.921875 74.21875 44.703125 73.484375 
Q 48.484375 72.75 52.59375 71.296875 
z
" id="DejaVuSans-54"/>
      </defs>
      <g transform="translate(381.781628 532.237813)scale(0.14 -0.14)">
       <use xlink:href="#DejaVuSans-49"/>
       <use x="63.623047" xlink:href="#DejaVuSans-46"/>
       <use x="95.410156" xlink:href="#DejaVuSans-54"/>
      </g>
     </g>
    </g>
    <g id="xtick_18">
     <g id="line2d_28">
      <g>
       <use style="stroke:#000000;stroke-width:0.8;" x="470.348146" xlink:href="#m17813f9b01" y="514.6"/>
      </g>
     </g>
     <g id="text_16">
      <!-- 1.8 -->
      <g transform="translate(459.215959 532.237813)scale(0.14 -0.14)">
       <use xlink:href="#DejaVuSans-49"/>
       <use x="63.623047" xlink:href="#DejaVuSans-46"/>
       <use x="95.410156" xlink:href="#DejaVuSans-56"/>
      </g>
     </g>
    </g>
    <g id="text_17">
     <!-- segment length $\ell$ -->
     <defs>
      <path d="M 45.40625 27.984375 
Q 45.40625 37.75 41.375 43.109375 
Q 37.359375 48.484375 30.078125 48.484375 
Q 22.859375 48.484375 18.828125 43.109375 
Q 14.796875 37.75 14.796875 27.984375 
Q 14.796875 18.265625 18.828125 12.890625 
Q 22.859375 7.515625 30.078125 7.515625 
Q 37.359375 7.515625 41.375 12.890625 
Q 45.40625 18.265625 45.40625 27.984375 
z
M 54.390625 6.78125 
Q 54.390625 -7.171875 48.1875 -13.984375 
Q 42 -20.796875 29.203125 -20.796875 
Q 24.46875 -20.796875 20.265625 -20.09375 
Q 16.0625 -19.390625 12.109375 -17.921875 
L 12.109375 -9.1875 
Q 16.0625 -11.328125 19.921875 -12.34375 
Q 23.78125 -13.375 27.78125 -13.375 
Q 36.625 -13.375 41.015625 -8.765625 
Q 45.40625 -4.15625 45.40625 5.171875 
L 45.40625 9.625 
Q 42.625 4.78125 38.28125 2.390625 
Q 33.9375 0 27.875 0 
Q 17.828125 0 11.671875 7.65625 
Q 5.515625 15.328125 5.515625 27.984375 
Q 5.515625 40.671875 11.671875 48.328125 
Q 17.828125 56 27.875 56 
Q 33.9375 56 38.28125 53.609375 
Q 42.625 51.21875 45.40625 46.390625 
L 45.40625 54.6875 
L 54.390625 54.6875 
z
" id="DejaVuSans-103"/>
      <path d="M 9.421875 75.984375 
L 18.40625 75.984375 
L 18.40625 0 
L 9.421875 0 
z
" id="DejaVuSans-108"/>
      <path d="M 54.890625 33.015625 
L 54.890625 0 
L 45.90625 0 
L 45.90625 32.71875 
Q 45.90625 40.484375 42.875 44.328125 
Q 39.84375 48.1875 33.796875 48.1875 
Q 26.515625 48.1875 22.3125 43.546875 
Q 18.109375 38.921875 18.109375 30.90625 
L 18.109375 0 
L 9.078125 0 
L 9.078125 75.984375 
L 18.109375 75.984375 
L 18.109375 46.1875 
Q 21.34375 51.125 25.703125 53.5625 
Q 30.078125 56 35.796875 56 
Q 45.21875 56 50.046875 50.171875 
Q 54.890625 44.34375 54.890625 33.015625 
z
" id="DejaVuSans-104"/>
      <path d="M 14.84375 13.09375 
Q 16.84375 3.328125 21.09375 3.328125 
Q 23.921875 3.328125 27.59375 8.9375 
L 34.078125 8.9375 
Q 31.15625 3.953125 27.734375 1.375 
Q 24.03125 -1.421875 20.609375 -1.421875 
Q 12.984375 -1.421875 9.90625 5.375 
L 6.25 0 
L -1.375 0 
Q 3.90625 7.171875 7.8125 13.875 
Q 7.328125 17.671875 7.328125 21.828125 
Q 7.328125 29.25 8.84375 36.671875 
Q 14.546875 64.546875 19.625 70.265625 
Q 23.140625 74.21875 29.15625 74.21875 
Q 35.25 74.21875 35.25 65.765625 
Q 35.203125 61.96875 34.328125 57.421875 
Q 30.8125 38.8125 14.84375 13.09375 
z
M 14.796875 25.875 
Q 23.921875 42.875 26.703125 56.453125 
Q 28.171875 63.625 28.171875 65.484375 
Q 28.171875 68.84375 26.953125 68.84375 
Q 21.625 64.59375 16.890625 39.3125 
Q 15.578125 32.234375 14.796875 25.875 
z
" id="DejaVuSans-Oblique-8467"/>
     </defs>
     <g transform="translate(190.915 551.309375)scale(0.16 -0.16)">
      <use transform="translate(0 0.015625)" xlink:href="#DejaVuSans-115"/>
      <use transform="translate(52.099609 0.015625)" xlink:href="#DejaVuSans-101"/>
      <use transform="translate(113.623047 0.015625)" xlink:href="#DejaVuSans-103"/>
      <use transform="translate(177.099609 0.015625)" xlink:href="#DejaVuSans-109"/>
      <use transform="translate(274.511719 0.015625)" xlink:href="#DejaVuSans-101"/>
      <use transform="translate(336.035156 0.015625)" xlink:href="#DejaVuSans-110"/>
      <use transform="translate(399.414062 0.015625)" xlink:href="#DejaVuSans-116"/>
      <use transform="translate(438.623047 0.015625)" xlink:href="#DejaVuSans-32"/>
      <use transform="translate(470.410156 0.015625)" xlink:href="#DejaVuSans-108"/>
      <use transform="translate(498.193359 0.015625)" xlink:href="#DejaVuSans-101"/>
      <use transform="translate(559.716797 0.015625)" xlink:href="#DejaVuSans-110"/>
      <use transform="translate(623.095703 0.015625)" xlink:href="#DejaVuSans-103"/>
      <use transform="translate(686.572266 0.015625)" xlink:href="#DejaVuSans-116"/>
      <use transform="translate(725.78125 0.015625)" xlink:href="#DejaVuSans-104"/>
      <use transform="translate(789.160156 0.015625)" xlink:href="#DejaVuSans-32"/>
      <use transform="translate(820.947266 0.015625)" xlink:href="#DejaVuSans-Oblique-8467"/>
     </g>
    </g>
   </g>
   <g id="matplotlib.axis_6">
    <g id="ytick_7">
     <g id="line2d_29">
      <g>
       <use style="stroke:#000000;stroke-width:0.8;" x="33.19" xlink:href="#m575f031dae" y="514.6"/>
      </g>
     </g>
     <g id="text_18">
      <!-- 0 -->
      <g transform="translate(17.2825 519.918906)scale(0.14 -0.14)">
       <use xlink:href="#DejaVuSans-48"/>
      </g>
     </g>
    </g>
    <g id="ytick_8">
     <g id="line2d_30">
      <g>
       <use style="stroke:#000000;stroke-width:0.8;" x="33.19" xlink:href="#m575f031dae" y="465.459075"/>
      </g>
     </g>
     <g id="text_19">
      <!-- 2 -->
      <g transform="translate(17.2825 470.777982)scale(0.14 -0.14)">
       <use xlink:href="#DejaVuSans-50"/>
      </g>
     </g>
    </g>
    <g id="ytick_9">
     <g id="line2d_31">
      <g>
       <use style="stroke:#000000;stroke-width:0.8;" x="33.19" xlink:href="#m575f031dae" y="416.318151"/>
      </g>
     </g>
     <g id="text_20">
      <!-- 4 -->
      <g transform="translate(17.2825 421.637057)scale(0.14 -0.14)">
       <use xlink:href="#DejaVuSans-52"/>
      </g>
     </g>
    </g>
   </g>
   <g id="LineCollection_7">
    <path clip-path="url(#p02b65b82e0)" d="M 53.805 514.6 
L 53.805 504.88746 
" style="fill:none;stroke:#000000;stroke-width:0.5;"/>
    <path clip-path="url(#p02b65b82e0)" d="M 421.100252 514.6 
L 421.100252 511.362487 
" style="fill:none;stroke:#000000;stroke-width:0.5;"/>
   </g>
   <g id="LineCollection_8">
    <path clip-path="url(#p02b65b82e0)" d="M 223.814945 514.6 
L 223.814945 424.730091 
" style="fill:none;stroke:#ff7f0e;stroke-width:3;"/>
   </g>
   <g id="LineCollection_9">
    <path clip-path="url(#p02b65b82e0)" d="M 153.310665 514.6 
L 153.310665 424.730091 
" style="fill:none;stroke:#2ca02c;stroke-width:3;"/>
    <path clip-path="url(#p02b65b82e0)" d="M 294.319225 514.6 
L 294.319225 424.730091 
" style="fill:none;stroke:#2ca02c;stroke-width:3;"/>
   </g>
   <g id="line2d_32">
    <path clip-path="url(#p02b65b82e0)" d="M 53.805 504.88746 
L 59.926588 504.88746 
L 59.926588 514.6 
L 66.048175 514.6 
L 66.048175 508.124973 
L 72.169763 508.124973 
L 72.169763 514.6 
L 78.29135 514.6 
L 78.29135 511.362487 
L 84.412938 511.362487 
L 84.412938 511.362487 
L 90.534525 511.362487 
L 90.534525 514.6 
L 96.656113 514.6 
L 96.656113 508.124973 
L 102.7777 508.124973 
L 102.7777 501.649946 
L 108.899288 501.649946 
L 108.899288 472.512325 
L 115.020875 472.512325 
L 115.020875 488.699892 
L 121.142463 488.699892 
L 121.142463 504.88746 
L 127.26405 504.88746 
L 127.26405 478.987352 
L 133.385638 478.987352 
L 133.385638 495.174919 
L 139.507225 495.174919 
L 139.507225 478.987352 
L 145.628813 478.987352 
L 145.628813 482.224866 
L 151.7504 482.224866 
L 151.7504 469.274812 
L 157.871988 469.274812 
L 157.871988 472.512325 
L 163.993576 472.512325 
L 163.993576 466.037298 
L 170.115163 466.037298 
L 170.115163 488.699892 
L 176.236751 488.699892 
L 176.236751 472.512325 
L 182.358338 472.512325 
L 182.358338 456.324758 
L 188.479926 456.324758 
L 188.479926 466.037298 
L 194.601513 466.037298 
L 194.601513 453.087244 
L 200.723101 453.087244 
L 200.723101 475.749839 
L 206.844688 475.749839 
L 206.844688 453.087244 
L 212.966276 453.087244 
L 212.966276 469.274812 
L 219.087863 469.274812 
L 219.087863 427.187137 
L 225.209451 427.187137 
L 225.209451 459.562271 
L 231.331038 459.562271 
L 231.331038 472.512325 
L 237.452626 472.512325 
L 237.452626 478.987352 
L 243.574213 478.987352 
L 243.574213 482.224866 
L 249.695801 482.224866 
L 249.695801 472.512325 
L 255.817388 472.512325 
L 255.817388 475.749839 
L 261.938976 475.749839 
L 261.938976 443.374704 
L 268.060564 443.374704 
L 268.060564 482.224866 
L 274.182151 482.224866 
L 274.182151 488.699892 
L 280.303739 488.699892 
L 280.303739 475.749839 
L 286.425326 475.749839 
L 286.425326 491.937406 
L 292.546914 491.937406 
L 292.546914 491.937406 
L 298.668501 491.937406 
L 298.668501 482.224866 
L 304.790089 482.224866 
L 304.790089 485.462379 
L 310.911676 485.462379 
L 310.911676 508.124973 
L 317.033264 508.124973 
L 317.033264 475.749839 
L 323.154851 475.749839 
L 323.154851 498.412433 
L 329.276439 498.412433 
L 329.276439 491.937406 
L 335.398026 491.937406 
L 335.398026 504.88746 
L 341.519614 504.88746 
L 341.519614 514.6 
L 347.641201 514.6 
L 347.641201 501.649946 
L 353.762789 501.649946 
L 353.762789 498.412433 
L 359.884376 498.412433 
L 359.884376 498.412433 
L 366.005964 498.412433 
L 366.005964 511.362487 
L 372.127551 511.362487 
L 372.127551 508.124973 
L 378.249139 508.124973 
L 378.249139 501.649946 
L 384.370727 501.649946 
L 384.370727 514.6 
L 390.492314 514.6 
L 390.492314 508.124973 
L 396.613902 508.124973 
L 396.613902 514.6 
L 402.735489 514.6 
L 402.735489 501.649946 
L 408.857077 501.649946 
L 408.857077 514.6 
L 414.978664 514.6 
L 414.978664 511.362487 
" style="fill:none;stroke:#000000;stroke-linecap:square;stroke-width:0.5;"/>
   </g>
   <g id="patch_194">
    <path d="M 33.19 514.6 
L 33.19 393.331835 
" style="fill:none;stroke:#000000;stroke-linecap:square;stroke-linejoin:miter;stroke-width:0.8;"/>
   </g>
   <g id="patch_195">
    <path d="M 486.72 514.6 
L 486.72 393.331835 
" style="fill:none;stroke:#000000;stroke-linecap:square;stroke-linejoin:miter;stroke-width:0.8;"/>
   </g>
   <g id="patch_196">
    <path d="M 33.19 514.6 
L 486.72 514.6 
" style="fill:none;stroke:#000000;stroke-linecap:square;stroke-linejoin:miter;stroke-width:0.8;"/>
   </g>
   <g id="patch_197">
    <path d="M 33.19 393.331835 
L 486.72 393.331835 
" style="fill:none;stroke:#000000;stroke-linecap:square;stroke-linejoin:miter;stroke-width:0.8;"/>
   </g>
   <g id="text_21">
    <!-- distribution at frame 4000 -->
    <g transform="translate(133.55 387.331835)scale(0.192 -0.192)">
     <use xlink:href="#DejaVuSans-100"/>
     <use x="63.476562" xlink:href="#DejaVuSans-105"/>
     <use x="91.259766" xlink:href="#DejaVuSans-115"/>
     <use x="143.359375" xlink:href="#DejaVuSans-116"/>
     <use x="182.568359" xlink:href="#DejaVuSans-114"/>
     <use x="223.681641" xlink:href="#DejaVuSans-105"/>
     <use x="251.464844" xlink:href="#DejaVuSans-98"/>
     <use x="314.941406" xlink:href="#DejaVuSans-117"/>
     <use x="378.320312" xlink:href="#DejaVuSans-116"/>
     <use x="417.529297" xlink:href="#DejaVuSans-105"/>
     <use x="445.3125" xlink:href="#DejaVuSans-111"/>
     <use x="506.494141" xlink:href="#DejaVuSans-110"/>
     <use x="569.873047" xlink:href="#DejaVuSans-32"/>
     <use x="601.660156" xlink:href="#DejaVuSans-97"/>
     <use x="662.939453" xlink:href="#DejaVuSans-116"/>
     <use x="702.148438" xlink:href="#DejaVuSans-32"/>
     <use x="733.935547" xlink:href="#DejaVuSans-102"/>
     <use x="769.140625" xlink:href="#DejaVuSans-114"/>
     <use x="810.253906" xlink:href="#DejaVuSans-97"/>
     <use x="871.533203" xlink:href="#DejaVuSans-109"/>
     <use x="968.945312" xlink:href="#DejaVuSans-101"/>
     <use x="1030.46875" xlink:href="#DejaVuSans-32"/>
     <use x="1062.255859" xlink:href="#DejaVuSans-52"/>
     <use x="1125.878906" xlink:href="#DejaVuSans-48"/>
     <use x="1189.501953" xlink:href="#DejaVuSans-48"/>
     <use x="1253.125" xlink:href="#DejaVuSans-48"/>
    </g>
   </g>
  </g>
  <g id="text_22">
   <!-- k_bend = 26.0 -->
   <defs>
    <path d="M 9.078125 75.984375 
L 18.109375 75.984375 
L 18.109375 31.109375 
L 44.921875 54.6875 
L 56.390625 54.6875 
L 27.390625 29.109375 
L 57.625 0 
L 45.90625 0 
L 18.109375 26.703125 
L 18.109375 0 
L 9.078125 0 
z
" id="DejaVuSans-107"/>
    <path d="M 50.984375 -16.609375 
L 50.984375 -23.578125 
L -0.984375 -23.578125 
L -0.984375 -16.609375 
z
" id="DejaVuSans-95"/>
    <path d="M 10.59375 45.40625 
L 73.1875 45.40625 
L 73.1875 37.203125 
L 10.59375 37.203125 
z
M 10.59375 25.484375 
L 73.1875 25.484375 
L 73.1875 17.1875 
L 10.59375 17.1875 
z
" id="DejaVuSans-61"/>
   </defs>
   <g transform="translate(181.9395 26.109)scale(0.192 -0.192)">
    <use xlink:href="#DejaVuSans-107"/>
    <use x="57.910156" xlink:href="#DejaVuSans-95"/>
    <use x="107.910156" xlink:href="#DejaVuSans-98"/>
    <use x="171.386719" xlink:href="#DejaVuSans-101"/>
    <use x="232.910156" xlink:href="#DejaVuSans-110"/>
    <use x="296.289062" xlink:href="#DejaVuSans-100"/>
    <use x="359.765625" xlink:href="#DejaVuSans-32"/>
    <use x="391.552734" xlink:href="#DejaVuSans-61"/>
    <use x="475.341797" xlink:href="#DejaVuSans-32"/>
    <use x="507.128906" xlink:href="#DejaVuSans-50"/>
    <use x="570.751953" xlink:href="#DejaVuSans-54"/>
    <use x="634.375" xlink:href="#DejaVuSans-46"/>
    <use x="666.162109" xlink:href="#DejaVuSans-48"/>
   </g>
  </g>
 </g>
 <defs>
  <clipPath id="p329af027f4">
   <rect height="121.268165" width="453.53" x="33.19" y="63.936"/>
  </clipPath>
  <clipPath id="p652988c589">
   <rect height="121.268165" width="453.53" x="33.19" y="228.633917"/>
  </clipPath>
  <clipPath id="p02b65b82e0">
   <rect height="121.268165" width="453.53" x="33.19" y="393.331835"/>
  </clipPath>
 </defs>
</svg>
